=== Verbose logging started: 28/11/2017  16:17:37  Build type: SHIP UNICODE 5.00.10011.00  Calling process: C:\Users\games\AppData\Local\Temp\{1FEB4DC3-1C54-415F-B8FC-416E28FF4697}\.be\dCodeBootstrapUpdater.exe ===
MSI (c) (A4:EC) [16:17:37:939]: Resetting cached policy values
MSI (c) (A4:EC) [16:17:37:939]: Machine policy value 'Debug' is 0
MSI (c) (A4:EC) [16:17:37:939]: ******* RunEngine:
           ******* Product: C:\ProgramData\Package Cache\{9CF4366F-4422-49E0-A3A5-C72DC5846540}v2.0.0.1028\dCodeSetup.msi
           ******* Action: 
           ******* CommandLine: **********
MSI (c) (A4:EC) [16:17:37:939]: Client-side and UI is none or basic: Running entire install on the server.
MSI (c) (A4:EC) [16:17:37:939]: Grabbed execution mutex.
MSI (c) (A4:EC) [16:17:37:939]: Cloaking enabled.
MSI (c) (A4:EC) [16:17:37:939]: Attempting to enable all disabled privileges before calling Install on Server
MSI (c) (A4:EC) [16:17:37:939]: Incrementing counter to disable shutdown. Counter after increment: 0
MSI (s) (B0:CC) [16:17:37:957]: Running installation inside multi-package transaction C:\ProgramData\Package Cache\{9CF4366F-4422-49E0-A3A5-C72DC5846540}v2.0.0.1028\dCodeSetup.msi
MSI (s) (B0:CC) [16:17:37:957]: Grabbed execution mutex.
MSI (s) (B0:A4) [16:17:37:957]: Resetting cached policy values
MSI (s) (B0:A4) [16:17:37:957]: Machine policy value 'Debug' is 0
MSI (s) (B0:A4) [16:17:37:957]: ******* RunEngine:
           ******* Product: C:\ProgramData\Package Cache\{9CF4366F-4422-49E0-A3A5-C72DC5846540}v2.0.0.1028\dCodeSetup.msi
           ******* Action: 
           ******* CommandLine: **********
MSI (s) (B0:A4) [16:17:37:957]: Machine policy value 'DisableUserInstalls' is 0
MSI (s) (B0:A4) [16:17:37:988]: Note: 1: 2203 2: C:\WINDOWS\Installer\inprogressinstallinfo.ipi 3: -2147287038 
MSI (s) (B0:A4) [16:17:37:988]: SRSetRestorePoint skipped for this transaction.
MSI (s) (B0:A4) [16:17:37:988]: File will have security applied from OpCode.
MSI (s) (B0:A4) [16:17:38:004]: SOFTWARE RESTRICTION POLICY: Verifying package --> 'C:\ProgramData\Package Cache\{9CF4366F-4422-49E0-A3A5-C72DC5846540}v2.0.0.1028\dCodeSetup.msi' against software restriction policy
MSI (s) (B0:A4) [16:17:38:004]: Note: 1: 2262 2: DigitalSignature 3: -2147287038 
MSI (s) (B0:A4) [16:17:38:004]: SOFTWARE RESTRICTION POLICY: C:\ProgramData\Package Cache\{9CF4366F-4422-49E0-A3A5-C72DC5846540}v2.0.0.1028\dCodeSetup.msi is not digitally signed
MSI (s) (B0:A4) [16:17:38:004]: SOFTWARE RESTRICTION POLICY: C:\ProgramData\Package Cache\{9CF4366F-4422-49E0-A3A5-C72DC5846540}v2.0.0.1028\dCodeSetup.msi is permitted to run at the 'unrestricted' authorization level.
MSI (s) (B0:A4) [16:17:38:004]: MSCOREE not loaded loading copy from system32
MSI (s) (B0:A4) [16:17:38:004]: End dialog not enabled
MSI (s) (B0:A4) [16:17:38:004]: Original package ==> C:\ProgramData\Package Cache\{9CF4366F-4422-49E0-A3A5-C72DC5846540}v2.0.0.1028\dCodeSetup.msi
MSI (s) (B0:A4) [16:17:38:004]: Package we're running from ==> C:\WINDOWS\Installer\67c9e1f.msi
MSI (s) (B0:A4) [16:17:38:004]: APPCOMPAT: Uninstall Flags override found.
MSI (s) (B0:A4) [16:17:38:004]: APPCOMPAT: Uninstall VersionNT override found.
MSI (s) (B0:A4) [16:17:38:004]: APPCOMPAT: Uninstall ServicePackLevel override found.
MSI (s) (B0:A4) [16:17:38:004]: APPCOMPAT: looking for appcompat database entry with ProductCode '{9CF4366F-4422-49E0-A3A5-C72DC5846540}'.
MSI (s) (B0:A4) [16:17:38:004]: APPCOMPAT: no matching ProductCode found in database.
MSI (s) (B0:A4) [16:17:38:020]: Machine policy value 'DisablePatch' is 0
MSI (s) (B0:A4) [16:17:38:020]: Machine policy value 'AllowLockdownPatch' is 0
MSI (s) (B0:A4) [16:17:38:020]: Machine policy value 'DisableLUAPatching' is 0
MSI (s) (B0:A4) [16:17:38:020]: Machine policy value 'DisableFlyWeightPatching' is 0
MSI (s) (B0:A4) [16:17:38:020]: APPCOMPAT: looking for appcompat database entry with ProductCode '{9CF4366F-4422-49E0-A3A5-C72DC5846540}'.
MSI (s) (B0:A4) [16:17:38:020]: APPCOMPAT: no matching ProductCode found in database.
MSI (s) (B0:A4) [16:17:38:020]: Transforms are not secure.
MSI (s) (B0:A4) [16:17:38:020]: PROPERTY CHANGE: Adding MsiLogFileLocation property. Its value is 'D:\Projects\Flash Builder\Installers\dCode\LogFileUpdater_000_MainPackage.txt'.
MSI (s) (B0:A4) [16:17:38:020]: Command Line: ALLUSERS=1 ARPSYSTEMCOMPONENT=1 MSIFASTINSTALL=7 INSTALLDIR=C:\Program Files (x86)\InfoSol\dCodeV2 PIDKEY=000000077659311 SERCODE=UPDATER REINSTALL=ALL REINSTALLMODE=vomus REBOOT=ReallySuppress CURRENTDIRECTORY=D:\Projects\Flash Builder\Installers\dCode CLIENTUILEVEL=3 MSICLIENTUSESEXTERNALUI=1 CLIENTPROCESSID=18340 
MSI (s) (B0:A4) [16:17:38:020]: PROPERTY CHANGE: Adding PackageCode property. Its value is '{B177304C-F0E6-44CE-939A-56BC13DA3337}'.
MSI (s) (B0:A4) [16:17:38:020]: Product Code passed to Engine.Initialize:           ''
MSI (s) (B0:A4) [16:17:38:020]: Product Code from property table before transforms: '{9CF4366F-4422-49E0-A3A5-C72DC5846540}'
MSI (s) (B0:A4) [16:17:38:020]: Product Code from property table after transforms:  '{9CF4366F-4422-49E0-A3A5-C72DC5846540}'
MSI (s) (B0:A4) [16:17:38:020]: Product registered: entering maintenance mode
MSI (s) (B0:A4) [16:17:38:020]: Determined that existing product (either this product or the product being upgraded with a patch) is installed per-machine.
MSI (s) (B0:A4) [16:17:38:020]: Product {9CF4366F-4422-49E0-A3A5-C72DC5846540} is admin assigned: LocalSystem owns the publish key.
MSI (s) (B0:A4) [16:17:38:020]: Product {9CF4366F-4422-49E0-A3A5-C72DC5846540} is managed.
MSI (s) (B0:A4) [16:17:38:020]: MSI_LUA: Credential prompt not required, user is an admin
MSI (s) (B0:A4) [16:17:38:020]: PROPERTY CHANGE: Adding ProductState property. Its value is '5'.
MSI (s) (B0:A4) [16:17:38:020]: PROPERTY CHANGE: Adding ProductToBeRegistered property. Its value is '1'.
MSI (s) (B0:A4) [16:17:38:020]: Entering CMsiConfigurationManager::SetLastUsedSource.
MSI (s) (B0:A4) [16:17:38:020]: Specifed source is not already in a list.
MSI (s) (B0:A4) [16:17:38:020]: User policy value 'SearchOrder' is 'nmu'
MSI (s) (B0:A4) [16:17:38:020]: Machine policy value 'DisableBrowse' is 0
MSI (s) (B0:A4) [16:17:38:020]: Machine policy value 'AllowLockdownBrowse' is 0
MSI (s) (B0:A4) [16:17:38:020]: Adding new sources is allowed.
MSI (s) (B0:A4) [16:17:38:020]: PROPERTY CHANGE: Adding PackagecodeChanging property. Its value is '1'.
MSI (s) (B0:A4) [16:17:38:020]: Package name retrieved from configuration data: 'dCodeSetup.msi'
MSI (s) (B0:A4) [16:17:38:020]: Note: 1: 2262 2: AdminProperties 3: -2147287038 
MSI (s) (B0:A4) [16:17:38:020]: Machine policy value 'DisableMsi' is 0
MSI (s) (B0:A4) [16:17:38:020]: Machine policy value 'AlwaysInstallElevated' is 0
MSI (s) (B0:A4) [16:17:38:020]: User policy value 'AlwaysInstallElevated' is 0
MSI (s) (B0:A4) [16:17:38:020]: Product {9CF4366F-4422-49E0-A3A5-C72DC5846540} is admin assigned: LocalSystem owns the publish key.
MSI (s) (B0:A4) [16:17:38:020]: Product {9CF4366F-4422-49E0-A3A5-C72DC5846540} is managed.
MSI (s) (B0:A4) [16:17:38:020]: Running product '{9CF4366F-4422-49E0-A3A5-C72DC5846540}' with elevated privileges: Product is assigned.
MSI (s) (B0:A4) [16:17:38:020]: PROPERTY CHANGE: Adding ARPSYSTEMCOMPONENT property. Its value is '1'.
MSI (s) (B0:A4) [16:17:38:020]: PROPERTY CHANGE: Adding MSIFASTINSTALL property. Its value is '7'.
MSI (s) (B0:A4) [16:17:38:020]: PROPERTY CHANGE: Adding INSTALLDIR property. Its value is 'C:\Program Files (x86)\InfoSol\dCodeV2'.
MSI (s) (B0:A4) [16:17:38:020]: PROPERTY CHANGE: Modifying PIDKEY property. Its current value is '123456789012345'. Its new value: '000000077659311'.
MSI (s) (B0:A4) [16:17:38:020]: PROPERTY CHANGE: Modifying SERCODE property. Its current value is '1234-5678-9012-3456'. Its new value: 'UPDATER'.
MSI (s) (B0:A4) [16:17:38:020]: PROPERTY CHANGE: Adding REINSTALL property. Its value is 'ALL'.
MSI (s) (B0:A4) [16:17:38:020]: PROPERTY CHANGE: Adding REINSTALLMODE property. Its value is 'vomus'.
MSI (s) (B0:A4) [16:17:38:020]: PROPERTY CHANGE: Adding REBOOT property. Its value is 'ReallySuppress'.
MSI (s) (B0:A4) [16:17:38:020]: PROPERTY CHANGE: Adding CURRENTDIRECTORY property. Its value is 'D:\Projects\Flash Builder\Installers\dCode'.
MSI (s) (B0:A4) [16:17:38:020]: PROPERTY CHANGE: Adding CLIENTUILEVEL property. Its value is '3'.
MSI (s) (B0:A4) [16:17:38:020]: PROPERTY CHANGE: Adding MSICLIENTUSESEXTERNALUI property. Its value is '1'.
MSI (s) (B0:A4) [16:17:38:020]: PROPERTY CHANGE: Adding CLIENTPROCESSID property. Its value is '18340'.
MSI (s) (B0:A4) [16:17:38:020]: Machine policy value 'DisableAutomaticApplicationShutdown' is 0
MSI (s) (B0:A4) [16:17:38:020]: PROPERTY CHANGE: Adding MsiRestartManagerSessionKey property. Its value is '56023a48d4f86748a85419cb1766bf23'.
MSI (s) (B0:A4) [16:17:38:020]: RESTART MANAGER: Session opened.
MSI (s) (B0:A4) [16:17:38:020]: PROPERTY CHANGE: Adding MsiSystemRebootPending property. Its value is '1'.
MSI (s) (B0:A4) [16:17:38:020]: TRANSFORMS property is now: 
MSI (s) (B0:A4) [16:17:38:020]: PROPERTY CHANGE: Adding PRODUCTLANGUAGE property. Its value is '1033'.
MSI (s) (B0:A4) [16:17:38:020]: PROPERTY CHANGE: Adding VersionDatabase property. Its value is '301'.
MSI (s) (B0:A4) [16:17:38:020]: SHELL32::SHGetFolderPath returned: C:\Users\games\AppData\Roaming
MSI (s) (B0:A4) [16:17:38:020]: SHELL32::SHGetFolderPath returned: C:\Users\games\Favorites
MSI (s) (B0:A4) [16:17:38:020]: SHELL32::SHGetFolderPath returned: C:\Users\games\AppData\Roaming\Microsoft\Windows\Network Shortcuts
MSI (s) (B0:A4) [16:17:38:020]: SHELL32::SHGetFolderPath returned: C:\Users\games\Documents
MSI (s) (B0:A4) [16:17:38:020]: SHELL32::SHGetFolderPath returned: C:\Users\games\AppData\Roaming\Microsoft\Windows\Printer Shortcuts
MSI (s) (B0:A4) [16:17:38:020]: SHELL32::SHGetFolderPath returned: C:\Users\games\AppData\Roaming\Microsoft\Windows\Recent
MSI (s) (B0:A4) [16:17:38:020]: SHELL32::SHGetFolderPath returned: C:\Users\games\AppData\Roaming\Microsoft\Windows\SendTo
MSI (s) (B0:A4) [16:17:38:020]: SHELL32::SHGetFolderPath returned: C:\Users\games\AppData\Roaming\Microsoft\Windows\Templates
MSI (s) (B0:A4) [16:17:38:020]: SHELL32::SHGetFolderPath returned: C:\ProgramData
MSI (s) (B0:A4) [16:17:38:020]: SHELL32::SHGetFolderPath returned: C:\Users\games\AppData\Local
MSI (s) (B0:A4) [16:17:38:020]: SHELL32::SHGetFolderPath returned: C:\Users\games\Pictures
MSI (s) (B0:A4) [16:17:38:020]: SHELL32::SHGetFolderPath returned: C:\ProgramData\Microsoft\Windows\Start Menu\Programs\Administrative Tools
MSI (s) (B0:A4) [16:17:38:020]: SHELL32::SHGetFolderPath returned: C:\ProgramData\Microsoft\Windows\Start Menu\Programs\Startup
MSI (s) (B0:A4) [16:17:38:020]: SHELL32::SHGetFolderPath returned: C:\ProgramData\Microsoft\Windows\Start Menu\Programs
MSI (s) (B0:A4) [16:17:38:035]: SHELL32::SHGetFolderPath returned: C:\ProgramData\Microsoft\Windows\Start Menu
MSI (s) (B0:A4) [16:17:38:035]: SHELL32::SHGetFolderPath returned: C:\Users\Public\Desktop
MSI (s) (B0:A4) [16:17:38:035]: SHELL32::SHGetFolderPath returned: C:\Users\games\AppData\Roaming\Microsoft\Windows\Start Menu\Programs\Administrative Tools
MSI (s) (B0:A4) [16:17:38:035]: SHELL32::SHGetFolderPath returned: C:\Users\games\AppData\Roaming\Microsoft\Windows\Start Menu\Programs\Startup
MSI (s) (B0:A4) [16:17:38:035]: SHELL32::SHGetFolderPath returned: C:\Users\games\AppData\Roaming\Microsoft\Windows\Start Menu\Programs
MSI (s) (B0:A4) [16:17:38:035]: SHELL32::SHGetFolderPath returned: C:\Users\games\AppData\Roaming\Microsoft\Windows\Start Menu
MSI (s) (B0:A4) [16:17:38:035]: SHELL32::SHGetFolderPath returned: C:\Users\games\Desktop
MSI (s) (B0:A4) [16:17:38:035]: SHELL32::SHGetFolderPath returned: C:\ProgramData\Microsoft\Windows\Templates
MSI (s) (B0:A4) [16:17:38:035]: SHELL32::SHGetFolderPath returned: C:\WINDOWS\Fonts
MSI (s) (B0:A4) [16:17:38:035]: Note: 1: 2898 2: MS Sans Serif 3: MS Sans Serif 4: 0 5: 16 
MSI (s) (B0:A4) [16:17:38:035]: MSI_LUA: Setting AdminUser property to 1 because the product is already installed managed and per-machine
MSI (s) (B0:A4) [16:17:38:035]: MSI_LUA: Setting MsiRunningElevated property to 1 because the install is already running elevated.
MSI (s) (B0:A4) [16:17:38:035]: PROPERTY CHANGE: Adding MsiRunningElevated property. Its value is '1'.
MSI (s) (B0:A4) [16:17:38:035]: PROPERTY CHANGE: Adding Privileged property. Its value is '1'.
MSI (s) (B0:A4) [16:17:38:035]: Note: 1: 1402 2: HKEY_CURRENT_USER\Software\Microsoft\MS Setup (ACME)\User Info 3: 2 
MSI (s) (B0:A4) [16:17:38:035]: PROPERTY CHANGE: Adding USERNAME property. Its value is 'games'.
MSI (s) (B0:A4) [16:17:38:035]: Note: 1: 1402 2: HKEY_CURRENT_USER\Software\Microsoft\MS Setup (ACME)\User Info 3: 2 
MSI (s) (B0:A4) [16:17:38:035]: PROPERTY CHANGE: Adding Installed property. Its value is '00:00:00'.
MSI (s) (B0:A4) [16:17:38:035]: PROPERTY CHANGE: Adding DATABASE property. Its value is 'C:\WINDOWS\Installer\67c9e1f.msi'.
MSI (s) (B0:A4) [16:17:38:035]: PROPERTY CHANGE: Adding OriginalDatabase property. Its value is 'C:\ProgramData\Package Cache\{9CF4366F-4422-49E0-A3A5-C72DC5846540}v2.0.0.1028\dCodeSetup.msi'.
MSI (s) (B0:A4) [16:17:38:035]: Machine policy value 'MsiDisableEmbeddedUI' is 0
MSI (s) (B0:A4) [16:17:38:035]: EEUI - Disabling MsiEmbeddedUI due to existing external or embedded UI
MSI (s) (B0:A4) [16:17:38:035]: EEUI - Disabling MsiEmbeddedUI for service because it's not a quiet/basic install
MSI (s) (B0:A4) [16:17:38:035]: Note: 1: 2205 2:  3: PatchPackage 
MSI (s) (B0:A4) [16:17:38:035]: Machine policy value 'DisableRollback' is 0
MSI (s) (B0:A4) [16:17:38:035]: User policy value 'DisableRollback' is 0
MSI (s) (B0:A4) [16:17:38:035]: PROPERTY CHANGE: Adding UILevel property. Its value is '2'.
MSI (s) (B0:A4) [16:17:38:035]: PROPERTY CHANGE: Adding MsiUISourceResOnly property. Its value is '1'.
MSI (s) (B0:A4) [16:17:38:035]: PROPERTY CHANGE: Adding QFEUpgrade property. Its value is '1'.
=== Logging started: 28/11/2017  16:17:38 ===
MSI (s) (B0:A4) [16:17:38:035]: Note: 1: 2203 2: C:\WINDOWS\Installer\inprogressinstallinfo.ipi 3: -2147287038 
MSI (s) (B0:A4) [16:17:38:035]: PROPERTY CHANGE: Adding Preselected property. Its value is '1'.
MSI (s) (B0:A4) [16:17:38:035]: APPCOMPAT: [DetectVersionLaunchCondition] Launch condition already passes.
MSI (s) (B0:A4) [16:17:38:054]: PROPERTY CHANGE: Adding ACTION property. Its value is 'INSTALL'.
MSI (s) (B0:A4) [16:17:38:054]: Doing action: INSTALL
Action start 16:17:38: INSTALL.
MSI (s) (B0:A4) [16:17:38:055]: Running ExecuteSequence
MSI (s) (B0:A4) [16:17:38:055]: Doing action: AppSearch
Action start 16:17:38: AppSearch.
MSI (s) (B0:A4) [16:17:38:056]: Note: 1: 2262 2: Signature 3: -2147287038 
MSI (s) (B0:A4) [16:17:38:056]: PROPERTY CHANGE: Adding WIXNETFX4RELEASEINSTALLED property. Its value is '#461308'.
MSI (s) (B0:A4) [16:17:38:056]: Doing action: SetWIX_IS_NETFRAMEWORK_461_OR_LATER_INSTALLED
Action ended 16:17:38: AppSearch. Return value 1.
MSI (s) (B0:A4) [16:17:38:057]: PROPERTY CHANGE: Adding WIX_IS_NETFRAMEWORK_461_OR_LATER_INSTALLED property. Its value is '1'.
Action start 16:17:38: SetWIX_IS_NETFRAMEWORK_461_OR_LATER_INSTALLED.
MSI (s) (B0:A4) [16:17:38:057]: Doing action: LaunchConditions
Action ended 16:17:38: SetWIX_IS_NETFRAMEWORK_461_OR_LATER_INSTALLED. Return value 1.
Action start 16:17:38: LaunchConditions.
MSI (s) (B0:A4) [16:17:38:057]: Doing action: ValidateProductID
Action ended 16:17:38: LaunchConditions. Return value 1.
Action start 16:17:38: ValidateProductID.
MSI (s) (B0:A4) [16:17:38:057]: Doing action: CostInitialize
Action ended 16:17:38: ValidateProductID. Return value 1.
MSI (s) (B0:A4) [16:17:38:057]: Machine policy value 'MaxPatchCacheSize' is 10
MSI (s) (B0:A4) [16:17:38:057]: PROPERTY CHANGE: Adding ROOTDRIVE property. Its value is 'D:\'.
MSI (s) (B0:A4) [16:17:38:057]: PROPERTY CHANGE: Adding CostingComplete property. Its value is '0'.
MSI (s) (B0:A4) [16:17:38:057]: Note: 1: 2205 2:  3: Patch 
MSI (s) (B0:A4) [16:17:38:057]: Note: 1: 2205 2:  3: PatchPackage 
MSI (s) (B0:A4) [16:17:38:057]: Note: 1: 2205 2:  3: MsiPatchHeaders 
MSI (s) (B0:A4) [16:17:38:057]: Note: 1: 2205 2:  3: __MsiPatchFileList 
MSI (s) (B0:A4) [16:17:38:057]: Note: 1: 2205 2:  3: PatchPackage 
MSI (s) (B0:A4) [16:17:38:057]: Note: 1: 2228 2:  3: PatchPackage 4: SELECT `DiskId`, `PatchId`, `LastSequence` FROM `Media`, `PatchPackage` WHERE `Media`.`DiskId`=`PatchPackage`.`Media_` ORDER BY `DiskId`  
MSI (s) (B0:A4) [16:17:38:057]: Note: 1: 2205 2:  3: Patch 
Action start 16:17:38: CostInitialize.
MSI (s) (B0:A4) [16:17:38:057]: Doing action: FileCost
Action ended 16:17:38: CostInitialize. Return value 1.
MSI (s) (B0:A4) [16:17:38:057]: Note: 1: 2205 2:  3: MsiAssembly 
Action start 16:17:38: FileCost.
MSI (s) (B0:A4) [16:17:38:057]: Doing action: CostFinalize
Action ended 16:17:38: FileCost. Return value 1.
MSI (s) (B0:A4) [16:17:38:057]: PROPERTY CHANGE: Adding OutOfDiskSpace property. Its value is '0'.
MSI (s) (B0:A4) [16:17:38:057]: PROPERTY CHANGE: Adding OutOfNoRbDiskSpace property. Its value is '0'.
MSI (s) (B0:A4) [16:17:38:057]: PROPERTY CHANGE: Adding PrimaryVolumeSpaceAvailable property. Its value is '0'.
MSI (s) (B0:A4) [16:17:38:057]: PROPERTY CHANGE: Adding PrimaryVolumeSpaceRequired property. Its value is '0'.
MSI (s) (B0:A4) [16:17:38:057]: PROPERTY CHANGE: Adding PrimaryVolumeSpaceRemaining property. Its value is '0'.
MSI (s) (B0:A4) [16:17:38:057]: Note: 1: 2205 2:  3: MsiAssembly 
MSI (s) (B0:A4) [16:17:38:057]: Note: 1: 2228 2:  3: MsiAssembly 4:  SELECT `MsiAssembly`.`Attributes`, `MsiAssembly`.`File_Application`, `MsiAssembly`.`File_Manifest`,  `Component`.`KeyPath` FROM `MsiAssembly`, `Component` WHERE  `MsiAssembly`.`Component_` = `Component`.`Component` AND `MsiAssembly`.`Component_` = ? 
MSI (s) (B0:A4) [16:17:38:057]: PROPERTY CHANGE: Modifying INSTALLDIR property. Its current value is 'C:\Program Files (x86)\InfoSol\dCodeV2'. Its new value: 'D:\dCodeV2'.
MSI (s) (B0:A4) [16:17:38:057]: PROPERTY CHANGE: Adding dirF7618158CE8FEC39DAC1DD18D359DD11 property. Its value is 'D:\dCodeV2\de'.
MSI (s) (B0:A4) [16:17:38:057]: PROPERTY CHANGE: Adding dir63A634F9A8BE5EC5B8B7424D6A18E4C4 property. Its value is 'D:\dCodeV2\es'.
MSI (s) (B0:A4) [16:17:38:057]: PROPERTY CHANGE: Adding dir2A24FBFB4DF949E967B760F13ACE1774 property. Its value is 'D:\dCodeV2\Files'.
MSI (s) (B0:A4) [16:17:38:057]: PROPERTY CHANGE: Adding dir1424604976AE3158AC7908CE5FE4118E property. Its value is 'D:\dCodeV2\fr'.
MSI (s) (B0:A4) [16:17:38:057]: PROPERTY CHANGE: Adding dirE392BE6BEA39F69849B0E8BFDE95A1DA property. Its value is 'D:\dCodeV2\hu'.
MSI (s) (B0:A4) [16:17:38:057]: PROPERTY CHANGE: Adding dirFCEE6B4345A27586A07C0608D2A46020 property. Its value is 'D:\dCodeV2\it'.
MSI (s) (B0:A4) [16:17:38:057]: PROPERTY CHANGE: Adding dir06451880B7983577060F11D069200563 property. Its value is 'D:\dCodeV2\pt-BR'.
MSI (s) (B0:A4) [16:17:38:057]: PROPERTY CHANGE: Adding dir9E5A3B74873AE78352FA568733F20660 property. Its value is 'D:\dCodeV2\ro'.
MSI (s) (B0:A4) [16:17:38:057]: PROPERTY CHANGE: Adding dir0DF44C6AAA034D1DA7FB5C126F730566 property. Its value is 'D:\dCodeV2\ru'.
MSI (s) (B0:A4) [16:17:38:057]: PROPERTY CHANGE: Adding dir1B17F138D3C501F5E048462A419FBB80 property. Its value is 'D:\dCodeV2\sv'.
MSI (s) (B0:A4) [16:17:38:057]: PROPERTY CHANGE: Adding dirB57A86750CE66C16FB0770F136C4A567 property. Its value is 'D:\dCodeV2\Xcelsius Addon'.
MSI (s) (B0:A4) [16:17:38:057]: PROPERTY CHANGE: Adding dir827E768E8FAD19EE7610193A7741CC10 property. Its value is 'D:\dCodeV2\zh-Hans'.
MSI (s) (B0:A4) [16:17:38:057]: Note: 1: 2205 2:  3: Patch 
MSI (s) (B0:A4) [16:17:38:057]: Note: 1: 2205 2:  3: Condition 
MSI (s) (B0:A4) [16:17:38:057]: Machine policy value 'EnforceUpgradeComponentRules' is 0
MSI (s) (B0:A4) [16:17:38:057]: PROPERTY CHANGE: Adding TARGETDIR property. Its value is 'D:\'.
MSI (s) (B0:A4) [16:17:38:057]: PROPERTY CHANGE: Adding dir_InfoSol property. Its value is 'C:\Program Files (x86)\InfoSol\'.
MSI (s) (B0:A4) [16:17:38:057]: PROPERTY CHANGE: Modifying INSTALLDIR property. Its current value is 'D:\dCodeV2'. Its new value: 'D:\dCodeV2\'.
MSI (s) (B0:A4) [16:17:38:057]: PROPERTY CHANGE: Modifying dir827E768E8FAD19EE7610193A7741CC10 property. Its current value is 'D:\dCodeV2\zh-Hans'. Its new value: 'D:\dCodeV2\zh-Hans\'.
MSI (s) (B0:A4) [16:17:38:057]: PROPERTY CHANGE: Modifying dirB57A86750CE66C16FB0770F136C4A567 property. Its current value is 'D:\dCodeV2\Xcelsius Addon'. Its new value: 'D:\dCodeV2\Xcelsius Addon\'.
MSI (s) (B0:A4) [16:17:38:057]: PROPERTY CHANGE: Modifying dir1B17F138D3C501F5E048462A419FBB80 property. Its current value is 'D:\dCodeV2\sv'. Its new value: 'D:\dCodeV2\sv\'.
MSI (s) (B0:A4) [16:17:38:057]: PROPERTY CHANGE: Modifying dir0DF44C6AAA034D1DA7FB5C126F730566 property. Its current value is 'D:\dCodeV2\ru'. Its new value: 'D:\dCodeV2\ru\'.
MSI (s) (B0:A4) [16:17:38:057]: PROPERTY CHANGE: Modifying dir9E5A3B74873AE78352FA568733F20660 property. Its current value is 'D:\dCodeV2\ro'. Its new value: 'D:\dCodeV2\ro\'.
MSI (s) (B0:A4) [16:17:38:057]: PROPERTY CHANGE: Modifying dir06451880B7983577060F11D069200563 property. Its current value is 'D:\dCodeV2\pt-BR'. Its new value: 'D:\dCodeV2\pt-BR\'.
MSI (s) (B0:A4) [16:17:38:057]: PROPERTY CHANGE: Modifying dirFCEE6B4345A27586A07C0608D2A46020 property. Its current value is 'D:\dCodeV2\it'. Its new value: 'D:\dCodeV2\it\'.
MSI (s) (B0:A4) [16:17:38:057]: PROPERTY CHANGE: Modifying dirE392BE6BEA39F69849B0E8BFDE95A1DA property. Its current value is 'D:\dCodeV2\hu'. Its new value: 'D:\dCodeV2\hu\'.
MSI (s) (B0:A4) [16:17:38:057]: PROPERTY CHANGE: Modifying dir1424604976AE3158AC7908CE5FE4118E property. Its current value is 'D:\dCodeV2\fr'. Its new value: 'D:\dCodeV2\fr\'.
MSI (s) (B0:A4) [16:17:38:057]: PROPERTY CHANGE: Modifying dir2A24FBFB4DF949E967B760F13ACE1774 property. Its current value is 'D:\dCodeV2\Files'. Its new value: 'D:\dCodeV2\Files\'.
MSI (s) (B0:A4) [16:17:38:057]: PROPERTY CHANGE: Modifying dir63A634F9A8BE5EC5B8B7424D6A18E4C4 property. Its current value is 'D:\dCodeV2\es'. Its new value: 'D:\dCodeV2\es\'.
MSI (s) (B0:A4) [16:17:38:057]: PROPERTY CHANGE: Modifying dirF7618158CE8FEC39DAC1DD18D359DD11 property. Its current value is 'D:\dCodeV2\de'. Its new value: 'D:\dCodeV2\de\'.
MSI (s) (B0:A4) [16:17:38:057]: Target path resolution complete. Dumping Directory table...
MSI (s) (B0:A4) [16:17:38:057]: Note: target paths subject to change (via custom actions or browsing)
MSI (s) (B0:A4) [16:17:38:057]: Dir (target): Key: TARGETDIR	, Object: D:\
MSI (s) (B0:A4) [16:17:38:057]: Dir (target): Key: ProgramFilesFolder	, Object: C:\Program Files (x86)\
MSI (s) (B0:A4) [16:17:38:057]: Dir (target): Key: dir_InfoSol	, Object: C:\Program Files (x86)\InfoSol\
MSI (s) (B0:A4) [16:17:38:057]: Dir (target): Key: INSTALLDIR	, Object: D:\dCodeV2\
MSI (s) (B0:A4) [16:17:38:057]: Dir (target): Key: dir827E768E8FAD19EE7610193A7741CC10	, Object: D:\dCodeV2\zh-Hans\
MSI (s) (B0:A4) [16:17:38:057]: Dir (target): Key: dirB57A86750CE66C16FB0770F136C4A567	, Object: D:\dCodeV2\Xcelsius Addon\
MSI (s) (B0:A4) [16:17:38:057]: Dir (target): Key: dir1B17F138D3C501F5E048462A419FBB80	, Object: D:\dCodeV2\sv\
MSI (s) (B0:A4) [16:17:38:057]: Dir (target): Key: dir0DF44C6AAA034D1DA7FB5C126F730566	, Object: D:\dCodeV2\ru\
MSI (s) (B0:A4) [16:17:38:057]: Dir (target): Key: dir9E5A3B74873AE78352FA568733F20660	, Object: D:\dCodeV2\ro\
MSI (s) (B0:A4) [16:17:38:057]: Dir (target): Key: dir06451880B7983577060F11D069200563	, Object: D:\dCodeV2\pt-BR\
MSI (s) (B0:A4) [16:17:38:057]: Dir (target): Key: dirFCEE6B4345A27586A07C0608D2A46020	, Object: D:\dCodeV2\it\
MSI (s) (B0:A4) [16:17:38:057]: Dir (target): Key: dirE392BE6BEA39F69849B0E8BFDE95A1DA	, Object: D:\dCodeV2\hu\
MSI (s) (B0:A4) [16:17:38:057]: Dir (target): Key: dir1424604976AE3158AC7908CE5FE4118E	, Object: D:\dCodeV2\fr\
MSI (s) (B0:A4) [16:17:38:057]: Dir (target): Key: dir2A24FBFB4DF949E967B760F13ACE1774	, Object: D:\dCodeV2\Files\
MSI (s) (B0:A4) [16:17:38:057]: Dir (target): Key: dir63A634F9A8BE5EC5B8B7424D6A18E4C4	, Object: D:\dCodeV2\es\
MSI (s) (B0:A4) [16:17:38:057]: Dir (target): Key: dirF7618158CE8FEC39DAC1DD18D359DD11	, Object: D:\dCodeV2\de\
MSI (s) (B0:A4) [16:17:38:057]: PROPERTY CHANGE: Adding INSTALLLEVEL property. Its value is '1'.
Action start 16:17:38: CostFinalize.
MSI (s) (B0:A4) [16:17:38:073]: Doing action: InstallValidate
Action ended 16:17:38: CostFinalize. Return value 1.
MSI (s) (B0:A4) [16:17:38:073]: PROPERTY CHANGE: Deleting MsiRestartManagerSessionKey property. Its current value is '56023a48d4f86748a85419cb1766bf23'.
MSI (s) (B0:A4) [16:17:38:073]: Feature: MainProgram; Installed: Local;   Request: Reinstall;   Action: Reinstall
MSI (s) (B0:A4) [16:17:38:073]: Feature: Complete; Installed: Local;   Request: Reinstall;   Action: Reinstall
MSI (s) (B0:A4) [16:17:38:073]: Component: cmp61F4834AC6010EF461BE703682D4E359; Installed: Local;   Request: Local;   Action: Local
MSI (s) (B0:A4) [16:17:38:073]: Component: cmp5B103A5B1D2481AE20A19AB615901F62; Installed: Local;   Request: Local;   Action: Local
MSI (s) (B0:A4) [16:17:38:073]: Component: cmpF7B5880BB97196B22F6001DAFA80575D; Installed: Local;   Request: Local;   Action: Local
MSI (s) (B0:A4) [16:17:38:073]: Component: cmp2B6E39BC25CC0CDCEC3DAC9E80C144BF; Installed: Local;   Request: Local;   Action: Local
MSI (s) (B0:A4) [16:17:38:073]: Component: cmp7F08FC7500E650E5FC7007EDD4E66AEC; Installed: Local;   Request: Local;   Action: Local
MSI (s) (B0:A4) [16:17:38:073]: Component: cmp74FC5EE621AD2513936A56F10235794D; Installed: Local;   Request: Local;   Action: Local
MSI (s) (B0:A4) [16:17:38:073]: Component: cmp8F905564DC0ED648233E20816B54285A; Installed: Local;   Request: Local;   Action: Local
MSI (s) (B0:A4) [16:17:38:073]: Component: cmp963BD8EF48249652E5DBAF156A8E6D6C; Installed: Local;   Request: Local;   Action: Local
MSI (s) (B0:A4) [16:17:38:073]: Component: cmp39A04F6DBF655CC40248EC6309715D8B; Installed: Local;   Request: Local;   Action: Local
MSI (s) (B0:A4) [16:17:38:073]: Component: cmp4859AD9A9980F9F497549C420EB6A257; Installed: Local;   Request: Local;   Action: Local
MSI (s) (B0:A4) [16:17:38:073]: Component: cmpAE4CB0D3390A27BBEAE5A26506FAB7A3; Installed: Local;   Request: Local;   Action: Local
MSI (s) (B0:A4) [16:17:38:073]: Component: cmp2266DC377D418FAF53D116805D29E45A; Installed: Local;   Request: Local;   Action: Local
MSI (s) (B0:A4) [16:17:38:073]: Component: cmpB345C91307D169984E69D0DF795258C8; Installed: Local;   Request: Local;   Action: Local
MSI (s) (B0:A4) [16:17:38:073]: Component: cmp58BDC3B0E8E6073CBB69A0BE2CC45807; Installed: Local;   Request: Local;   Action: Local
MSI (s) (B0:A4) [16:17:38:073]: Component: cmp726F11DD05AA8901B9ABF4EE61CDD93D; Installed: Local;   Request: Local;   Action: Local
MSI (s) (B0:A4) [16:17:38:073]: Component: cmp308C308312E3EE4679A4FE44E2C2F26E; Installed: Local;   Request: Local;   Action: Local
MSI (s) (B0:A4) [16:17:38:073]: Component: cmp80B7FFCD0824ADB2FAD8B63B69AE9548; Installed: Local;   Request: Local;   Action: Local
MSI (s) (B0:A4) [16:17:38:073]: Component: cmp4A737971C3D2CFCBA2F7274EFF2DCCDA; Installed: Local;   Request: Local;   Action: Local
MSI (s) (B0:A4) [16:17:38:073]: Component: cmp1F4E760342735EFBA350E40A91226D7B; Installed: Local;   Request: Local;   Action: Local
MSI (s) (B0:A4) [16:17:38:073]: Component: cmpBBF84A990510F8CB2AEEFE2B3A053779; Installed: Local;   Request: Local;   Action: Local
MSI (s) (B0:A4) [16:17:38:073]: Component: cmp0CE7F6F7ECCF60FD489264561C62C704; Installed: Local;   Request: Local;   Action: Local
MSI (s) (B0:A4) [16:17:38:073]: Component: cmp8C4952BCB46704F453F7A6D11BB4D9B4; Installed: Local;   Request: Local;   Action: Local
MSI (s) (B0:A4) [16:17:38:073]: Component: cmpE47301EC58474876AFC19F8D420F33A9; Installed: Local;   Request: Local;   Action: Local
MSI (s) (B0:A4) [16:17:38:073]: Component: cmpE38DA9D67C5B4070ACB5C9E11E4ED752; Installed: Local;   Request: Local;   Action: Local
MSI (s) (B0:A4) [16:17:38:073]: Note: 1: 2205 2:  3: BindImage 
MSI (s) (B0:A4) [16:17:38:073]: Note: 1: 2205 2:  3: ProgId 
MSI (s) (B0:A4) [16:17:38:073]: Note: 1: 2205 2:  3: PublishComponent 
MSI (s) (B0:A4) [16:17:38:073]: Note: 1: 2205 2:  3: SelfReg 
MSI (s) (B0:A4) [16:17:38:073]: Note: 1: 2205 2:  3: Extension 
MSI (s) (B0:A4) [16:17:38:073]: Note: 1: 2205 2:  3: Font 
MSI (s) (B0:A4) [16:17:38:073]: Note: 1: 2205 2:  3: Shortcut 
MSI (s) (B0:A4) [16:17:38:073]: Note: 1: 2205 2:  3: Class 
MSI (s) (B0:A4) [16:17:38:073]: Note: 1: 2205 2:  3: TypeLib 
Action start 16:17:38: InstallValidate.
MSI (s) (B0:A4) [16:17:38:073]: Note: 1: 2205 2:  3: _RemoveFilePath 
MSI (s) (B0:A4) [16:17:38:088]: PROPERTY CHANGE: Modifying CostingComplete property. Its current value is '0'. Its new value: '1'.
MSI (s) (B0:A4) [16:17:38:088]: Note: 1: 2205 2:  3: BindImage 
MSI (s) (B0:A4) [16:17:38:088]: Note: 1: 2205 2:  3: ProgId 
MSI (s) (B0:A4) [16:17:38:088]: Note: 1: 2205 2:  3: PublishComponent 
MSI (s) (B0:A4) [16:17:38:088]: Note: 1: 2205 2:  3: SelfReg 
MSI (s) (B0:A4) [16:17:38:088]: Note: 1: 2205 2:  3: Extension 
MSI (s) (B0:A4) [16:17:38:088]: Note: 1: 2205 2:  3: Font 
MSI (s) (B0:A4) [16:17:38:088]: Note: 1: 2205 2:  3: Shortcut 
MSI (s) (B0:A4) [16:17:38:088]: Note: 1: 2205 2:  3: Class 
MSI (s) (B0:A4) [16:17:38:088]: Note: 1: 2205 2:  3: TypeLib 
MSI (s) (B0:A4) [16:17:38:088]: Note: 1: 2727 2:  
MSI (s) (B0:A4) [16:17:38:088]: Note: 1: 2205 2:  3: FilesInUse 
MSI (s) (B0:A4) [16:17:38:104]: Note: 1: 2727 2:  
MSI (s) (B0:A4) [16:17:38:104]: Doing action: InstallInitialize
Action ended 16:17:38: InstallValidate. Return value 1.
MSI (s) (B0:A4) [16:17:38:104]: Machine policy value 'AlwaysInstallElevated' is 0
MSI (s) (B0:A4) [16:17:38:104]: User policy value 'AlwaysInstallElevated' is 0
MSI (s) (B0:A4) [16:17:38:104]: BeginTransaction: Locking Server
MSI (s) (B0:A4) [16:17:38:104]: Note: 1: 2203 2: C:\WINDOWS\Installer\inprogressinstallinfo.ipi 3: -2147287038 
MSI (s) (B0:A4) [16:17:38:104]: SRSetRestorePoint skipped for this transaction.
MSI (s) (B0:A4) [16:17:38:104]: Note: 1: 2203 2: C:\WINDOWS\Installer\inprogressinstallinfo.ipi 3: -2147287038 
MSI (s) (B0:A4) [16:17:38:104]: Server not locked: locking for product {9CF4366F-4422-49E0-A3A5-C72DC5846540}
Action start 16:17:38: InstallInitialize.
MSI (s) (B0:A4) [16:17:38:119]: Skipping action: CustomAction1 (condition is false)
MSI (s) (B0:A4) [16:17:38:119]: Skipping action: GenerateTrialKey (condition is false)
MSI (s) (B0:A4) [16:17:38:119]: Doing action: ProcessComponents
Action ended 16:17:38: InstallInitialize. Return value 1.
Action start 16:17:38: ProcessComponents.
MSI (s) (B0:A4) [16:17:38:135]: Doing action: UnpublishFeatures
Action ended 16:17:38: ProcessComponents. Return value 1.
Action start 16:17:38: UnpublishFeatures.
MSI (s) (B0:A4) [16:17:38:135]: Doing action: RemoveRegistryValues
Action ended 16:17:38: UnpublishFeatures. Return value 1.
Action start 16:17:38: RemoveRegistryValues.
MSI (s) (B0:A4) [16:17:38:135]: Doing action: RemoveFiles
Action ended 16:17:38: RemoveRegistryValues. Return value 1.
MSI (s) (B0:A4) [16:17:38:135]: Note: 1: 2205 2:  3: RemoveFile 
MSI (s) (B0:A4) [16:17:38:135]: Note: 1: 2205 2:  3: RemoveFile 
Action start 16:17:38: RemoveFiles.
MSI (s) (B0:A4) [16:17:38:135]: Doing action: InstallFiles
Action ended 16:17:38: RemoveFiles. Return value 0.
Action start 16:17:38: InstallFiles.
MSI (s) (B0:A4) [16:17:38:135]: Note: 1: 2205 2:  3: Patch 
MSI (s) (B0:A4) [16:17:38:135]: Note: 1: 2228 2:  3: Patch 4: SELECT `Patch`.`File_`, `Patch`.`Header`, `Patch`.`Attributes`, `Patch`.`Sequence`, `Patch`.`StreamRef_` FROM `Patch` WHERE `Patch`.`File_` = ? AND `Patch`.`#_MsiActive`=? ORDER BY `Patch`.`Sequence` 
MSI (s) (B0:A4) [16:17:38:135]: Note: 1: 2205 2:  3: MsiSFCBypass 
MSI (s) (B0:A4) [16:17:38:135]: Note: 1: 2228 2:  3: MsiSFCBypass 4: SELECT `File_` FROM `MsiSFCBypass` WHERE `File_` = ? 
MSI (s) (B0:A4) [16:17:38:135]: Note: 1: 2205 2:  3: MsiPatchHeaders 
MSI (s) (B0:A4) [16:17:38:135]: Note: 1: 2228 2:  3: MsiPatchHeaders 4: SELECT `Header` FROM `MsiPatchHeaders` WHERE `StreamRef` = ? 
MSI (s) (B0:A4) [16:17:38:135]: Note: 1: 2205 2:  3: PatchPackage 
MSI (s) (B0:A4) [16:17:38:135]: Note: 1: 2205 2:  3: MsiPatchHeaders 
MSI (s) (B0:A4) [16:17:38:135]: Note: 1: 2205 2:  3: PatchPackage 
MSI (s) (B0:A4) [16:17:38:135]: Note: 1: 2205 2:  3: Patch 
MSI (s) (B0:A4) [16:17:38:135]: Note: 1: 2228 2:  3: Patch 4: SELECT `Patch`.`Sequence`, `Patch`.`PatchSize`, `Patch`.`Attributes`, `Patch`.`Header`, `Patch`.`StreamRef_` FROM `File`,`Patch`,`Component` WHERE `File`=? AND `File`=`File_` AND `Component`=`Component_` ORDER BY `Patch`.`Sequence` 
MSI (s) (B0:A4) [16:17:38:135]: Note: 1: 2205 2:  3: Patch 
MSI (s) (B0:A4) [16:17:38:135]: Note: 1: 2228 2:  3: Patch 4: SELECT `Patch`.`Sequence`, `Patch`.`PatchSize`, `Patch`.`Attributes`, `Patch`.`Header`, `Patch`.`StreamRef_` FROM `File`,`Patch`,`Component` WHERE `File`=? AND `File`=`File_` AND `Component`=`Component_` ORDER BY `Patch`.`Sequence` 
MSI (s) (B0:A4) [16:17:38:135]: Note: 1: 2205 2:  3: Patch 
MSI (s) (B0:A4) [16:17:38:135]: Note: 1: 2228 2:  3: Patch 4: SELECT `Patch`.`Sequence`, `Patch`.`PatchSize`, `Patch`.`Attributes`, `Patch`.`Header`, `Patch`.`StreamRef_` FROM `File`,`Patch`,`Component` WHERE `File`=? AND `File`=`File_` AND `Component`=`Component_` ORDER BY `Patch`.`Sequence` 
MSI (s) (B0:A4) [16:17:38:135]: Note: 1: 2205 2:  3: Patch 
MSI (s) (B0:A4) [16:17:38:135]: Note: 1: 2228 2:  3: Patch 4: SELECT `Patch`.`Sequence`, `Patch`.`PatchSize`, `Patch`.`Attributes`, `Patch`.`Header`, `Patch`.`StreamRef_` FROM `File`,`Patch`,`Component` WHERE `File`=? AND `File`=`File_` AND `Component`=`Component_` ORDER BY `Patch`.`Sequence` 
MSI (s) (B0:A4) [16:17:38:135]: Note: 1: 2205 2:  3: Patch 
MSI (s) (B0:A4) [16:17:38:135]: Note: 1: 2228 2:  3: Patch 4: SELECT `Patch`.`Sequence`, `Patch`.`PatchSize`, `Patch`.`Attributes`, `Patch`.`Header`, `Patch`.`StreamRef_` FROM `File`,`Patch`,`Component` WHERE `File`=? AND `File`=`File_` AND `Component`=`Component_` ORDER BY `Patch`.`Sequence` 
MSI (s) (B0:A4) [16:17:38:135]: Note: 1: 2205 2:  3: Patch 
MSI (s) (B0:A4) [16:17:38:135]: Note: 1: 2228 2:  3: Patch 4: SELECT `Patch`.`Sequence`, `Patch`.`PatchSize`, `Patch`.`Attributes`, `Patch`.`Header`, `Patch`.`StreamRef_` FROM `File`,`Patch`,`Component` WHERE `File`=? AND `File`=`File_` AND `Component`=`Component_` ORDER BY `Patch`.`Sequence` 
MSI (s) (B0:A4) [16:17:38:135]: Note: 1: 2205 2:  3: Patch 
MSI (s) (B0:A4) [16:17:38:135]: Note: 1: 2228 2:  3: Patch 4: SELECT `Patch`.`Sequence`, `Patch`.`PatchSize`, `Patch`.`Attributes`, `Patch`.`Header`, `Patch`.`StreamRef_` FROM `File`,`Patch`,`Component` WHERE `File`=? AND `File`=`File_` AND `Component`=`Component_` ORDER BY `Patch`.`Sequence` 
MSI (s) (B0:A4) [16:17:38:135]: Note: 1: 2205 2:  3: Patch 
MSI (s) (B0:A4) [16:17:38:135]: Note: 1: 2228 2:  3: Patch 4: SELECT `Patch`.`Sequence`, `Patch`.`PatchSize`, `Patch`.`Attributes`, `Patch`.`Header`, `Patch`.`StreamRef_` FROM `File`,`Patch`,`Component` WHERE `File`=? AND `File`=`File_` AND `Component`=`Component_` ORDER BY `Patch`.`Sequence` 
MSI (s) (B0:A4) [16:17:38:135]: Note: 1: 2205 2:  3: Patch 
MSI (s) (B0:A4) [16:17:38:135]: Note: 1: 2228 2:  3: Patch 4: SELECT `Patch`.`Sequence`, `Patch`.`PatchSize`, `Patch`.`Attributes`, `Patch`.`Header`, `Patch`.`StreamRef_` FROM `File`,`Patch`,`Component` WHERE `File`=? AND `File`=`File_` AND `Component`=`Component_` ORDER BY `Patch`.`Sequence` 
MSI (s) (B0:A4) [16:17:38:135]: Note: 1: 2205 2:  3: Patch 
MSI (s) (B0:A4) [16:17:38:135]: Note: 1: 2228 2:  3: Patch 4: SELECT `Patch`.`Sequence`, `Patch`.`PatchSize`, `Patch`.`Attributes`, `Patch`.`Header`, `Patch`.`StreamRef_` FROM `File`,`Patch`,`Component` WHERE `File`=? AND `File`=`File_` AND `Component`=`Component_` ORDER BY `Patch`.`Sequence` 
MSI (s) (B0:A4) [16:17:38:135]: Note: 1: 2205 2:  3: Patch 
MSI (s) (B0:A4) [16:17:38:135]: Note: 1: 2228 2:  3: Patch 4: SELECT `Patch`.`Sequence`, `Patch`.`PatchSize`, `Patch`.`Attributes`, `Patch`.`Header`, `Patch`.`StreamRef_` FROM `File`,`Patch`,`Component` WHERE `File`=? AND `File`=`File_` AND `Component`=`Component_` ORDER BY `Patch`.`Sequence` 
MSI (s) (B0:A4) [16:17:38:135]: Note: 1: 2205 2:  3: Patch 
MSI (s) (B0:A4) [16:17:38:135]: Note: 1: 2228 2:  3: Patch 4: SELECT `Patch`.`Sequence`, `Patch`.`PatchSize`, `Patch`.`Attributes`, `Patch`.`Header`, `Patch`.`StreamRef_` FROM `File`,`Patch`,`Component` WHERE `File`=? AND `File`=`File_` AND `Component`=`Component_` ORDER BY `Patch`.`Sequence` 
MSI (s) (B0:A4) [16:17:38:151]: Note: 1: 2205 2:  3: Patch 
MSI (s) (B0:A4) [16:17:38:151]: Note: 1: 2228 2:  3: Patch 4: SELECT `Patch`.`Sequence`, `Patch`.`PatchSize`, `Patch`.`Attributes`, `Patch`.`Header`, `Patch`.`StreamRef_` FROM `File`,`Patch`,`Component` WHERE `File`=? AND `File`=`File_` AND `Component`=`Component_` ORDER BY `Patch`.`Sequence` 
MSI (s) (B0:A4) [16:17:38:151]: Note: 1: 2205 2:  3: Patch 
MSI (s) (B0:A4) [16:17:38:151]: Note: 1: 2228 2:  3: Patch 4: SELECT `Patch`.`Sequence`, `Patch`.`PatchSize`, `Patch`.`Attributes`, `Patch`.`Header`, `Patch`.`StreamRef_` FROM `File`,`Patch`,`Component` WHERE `File`=? AND `File`=`File_` AND `Component`=`Component_` ORDER BY `Patch`.`Sequence` 
MSI (s) (B0:A4) [16:17:38:152]: Note: 1: 2205 2:  3: Patch 
MSI (s) (B0:A4) [16:17:38:152]: Note: 1: 2228 2:  3: Patch 4: SELECT `Patch`.`Sequence`, `Patch`.`PatchSize`, `Patch`.`Attributes`, `Patch`.`Header`, `Patch`.`StreamRef_` FROM `File`,`Patch`,`Component` WHERE `File`=? AND `File`=`File_` AND `Component`=`Component_` ORDER BY `Patch`.`Sequence` 
MSI (s) (B0:A4) [16:17:38:153]: Note: 1: 2205 2:  3: Patch 
MSI (s) (B0:A4) [16:17:38:153]: Note: 1: 2228 2:  3: Patch 4: SELECT `Patch`.`Sequence`, `Patch`.`PatchSize`, `Patch`.`Attributes`, `Patch`.`Header`, `Patch`.`StreamRef_` FROM `File`,`Patch`,`Component` WHERE `File`=? AND `File`=`File_` AND `Component`=`Component_` ORDER BY `Patch`.`Sequence` 
MSI (s) (B0:A4) [16:17:38:154]: Note: 1: 2205 2:  3: Patch 
MSI (s) (B0:A4) [16:17:38:154]: Note: 1: 2228 2:  3: Patch 4: SELECT `Patch`.`Sequence`, `Patch`.`PatchSize`, `Patch`.`Attributes`, `Patch`.`Header`, `Patch`.`StreamRef_` FROM `File`,`Patch`,`Component` WHERE `File`=? AND `File`=`File_` AND `Component`=`Component_` ORDER BY `Patch`.`Sequence` 
MSI (s) (B0:A4) [16:17:38:155]: Note: 1: 2205 2:  3: Patch 
MSI (s) (B0:A4) [16:17:38:155]: Note: 1: 2228 2:  3: Patch 4: SELECT `Patch`.`Sequence`, `Patch`.`PatchSize`, `Patch`.`Attributes`, `Patch`.`Header`, `Patch`.`StreamRef_` FROM `File`,`Patch`,`Component` WHERE `File`=? AND `File`=`File_` AND `Component`=`Component_` ORDER BY `Patch`.`Sequence` 
MSI (s) (B0:A4) [16:17:38:156]: Note: 1: 2205 2:  3: Patch 
MSI (s) (B0:A4) [16:17:38:156]: Note: 1: 2228 2:  3: Patch 4: SELECT `Patch`.`Sequence`, `Patch`.`PatchSize`, `Patch`.`Attributes`, `Patch`.`Header`, `Patch`.`StreamRef_` FROM `File`,`Patch`,`Component` WHERE `File`=? AND `File`=`File_` AND `Component`=`Component_` ORDER BY `Patch`.`Sequence` 
MSI (s) (B0:A4) [16:17:38:157]: Doing action: WriteRegistryValues
Action ended 16:17:38: InstallFiles. Return value 1.
Action start 16:17:38: WriteRegistryValues.
MSI (s) (B0:A4) [16:17:38:157]: Doing action: RegisterUser
Action ended 16:17:38: WriteRegistryValues. Return value 1.
Action start 16:17:38: RegisterUser.
MSI (s) (B0:A4) [16:17:38:157]: Doing action: RegisterProduct
Action ended 16:17:38: RegisterUser. Return value 0.
Action start 16:17:38: RegisterProduct.
MSI (s) (B0:A4) [16:17:38:157]: Re-registering product - performing upgrade of existing installation.
MSI (s) (B0:A4) [16:17:38:157]: Resolving source.
MSI (s) (B0:A4) [16:17:38:157]: Resolving source to launched-from source.
MSI (s) (B0:A4) [16:17:38:157]: Setting launched-from source as last-used.
MSI (s) (B0:A4) [16:17:38:157]: PROPERTY CHANGE: Adding SourceDir property. Its value is 'C:\ProgramData\Package Cache\{9CF4366F-4422-49E0-A3A5-C72DC5846540}v2.0.0.1028\'.
MSI (s) (B0:A4) [16:17:38:157]: PROPERTY CHANGE: Adding SOURCEDIR property. Its value is 'C:\ProgramData\Package Cache\{9CF4366F-4422-49E0-A3A5-C72DC5846540}v2.0.0.1028\'.
MSI (s) (B0:A4) [16:17:38:157]: PROPERTY CHANGE: Adding SourcedirProduct property. Its value is '{9CF4366F-4422-49E0-A3A5-C72DC5846540}'.
MSI (s) (B0:A4) [16:17:38:157]: SOURCEDIR ==> C:\ProgramData\Package Cache\{9CF4366F-4422-49E0-A3A5-C72DC5846540}v2.0.0.1028\
MSI (s) (B0:A4) [16:17:38:157]: SOURCEDIR product ==> {9CF4366F-4422-49E0-A3A5-C72DC5846540}
MSI (s) (B0:A4) [16:17:38:157]: Determining source type
MSI (s) (B0:A4) [16:17:38:157]: Source type from package 'dCodeSetup.msi': 2
MSI (s) (B0:A4) [16:17:38:157]: SECREPAIR: Hash Database: C:\WINDOWS\Installer\SourceHash{9CF4366F-4422-49E0-A3A5-C72DC5846540}
MSI (s) (B0:A4) [16:17:38:173]: SECREPAIR: filename: dCodeSetup.msi Stored Hash Value:6B1meO/FDI8TLEyeQWE6mM5Rsx5xwJ6jPxcL2q4UGfQ= Current Hash:z7hwwqVGaAUFscVLvQ/kOkAH37WTZt1/yWS1zPY3UNw=
MSI (s) (B0:A4) [16:17:38:173]: Machine policy value 'AlwaysInstallElevated' is 0
MSI (s) (B0:A4) [16:17:38:173]: User policy value 'AlwaysInstallElevated' is 0
MSI (s) (B0:A4) [16:17:38:173]: Source path resolution complete. Dumping Directory table...
MSI (s) (B0:A4) [16:17:38:173]: Dir (source): Key: TARGETDIR	, Object: C:\ProgramData\Package Cache\{9CF4366F-4422-49E0-A3A5-C72DC5846540}v2.0.0.1028\	, LongSubPath: 	, ShortSubPath: 
MSI (s) (B0:A4) [16:17:38:173]: Dir (source): Key: ProgramFilesFolder	, Object: C:\ProgramData\Package Cache\{9CF4366F-4422-49E0-A3A5-C72DC5846540}v2.0.0.1028\	, LongSubPath: 	, ShortSubPath: 
MSI (s) (B0:A4) [16:17:38:173]: Dir (source): Key: dir_InfoSol	, Object: C:\ProgramData\Package Cache\{9CF4366F-4422-49E0-A3A5-C72DC5846540}v2.0.0.1028\	, LongSubPath: InfoSol\	, ShortSubPath: 
MSI (s) (B0:A4) [16:17:38:173]: Dir (source): Key: INSTALLDIR	, Object: C:\ProgramData\Package Cache\{9CF4366F-4422-49E0-A3A5-C72DC5846540}v2.0.0.1028\	, LongSubPath: InfoSol\dCodeV2\	, ShortSubPath: 
MSI (s) (B0:A4) [16:17:38:173]: Dir (source): Key: dir827E768E8FAD19EE7610193A7741CC10	, Object: C:\ProgramData\Package Cache\{9CF4366F-4422-49E0-A3A5-C72DC5846540}v2.0.0.1028\	, LongSubPath: InfoSol\dCodeV2\zh-Hans\	, ShortSubPath: 
MSI (s) (B0:A4) [16:17:38:173]: Dir (source): Key: dirB57A86750CE66C16FB0770F136C4A567	, Object: C:\ProgramData\Package Cache\{9CF4366F-4422-49E0-A3A5-C72DC5846540}v2.0.0.1028\	, LongSubPath: InfoSol\dCodeV2\Xcelsius Addon\	, ShortSubPath: InfoSol\dCodeV2\on8mpwcx\
MSI (s) (B0:A4) [16:17:38:173]: Dir (source): Key: dir1B17F138D3C501F5E048462A419FBB80	, Object: C:\ProgramData\Package Cache\{9CF4366F-4422-49E0-A3A5-C72DC5846540}v2.0.0.1028\	, LongSubPath: InfoSol\dCodeV2\sv\	, ShortSubPath: 
MSI (s) (B0:A4) [16:17:38:173]: Dir (source): Key: dir0DF44C6AAA034D1DA7FB5C126F730566	, Object: C:\ProgramData\Package Cache\{9CF4366F-4422-49E0-A3A5-C72DC5846540}v2.0.0.1028\	, LongSubPath: InfoSol\dCodeV2\ru\	, ShortSubPath: 
MSI (s) (B0:A4) [16:17:38:173]: Dir (source): Key: dir9E5A3B74873AE78352FA568733F20660	, Object: C:\ProgramData\Package Cache\{9CF4366F-4422-49E0-A3A5-C72DC5846540}v2.0.0.1028\	, LongSubPath: InfoSol\dCodeV2\ro\	, ShortSubPath: 
MSI (s) (B0:A4) [16:17:38:173]: Dir (source): Key: dir06451880B7983577060F11D069200563	, Object: C:\ProgramData\Package Cache\{9CF4366F-4422-49E0-A3A5-C72DC5846540}v2.0.0.1028\	, LongSubPath: InfoSol\dCodeV2\pt-BR\	, ShortSubPath: 
MSI (s) (B0:A4) [16:17:38:173]: Dir (source): Key: dirFCEE6B4345A27586A07C0608D2A46020	, Object: C:\ProgramData\Package Cache\{9CF4366F-4422-49E0-A3A5-C72DC5846540}v2.0.0.1028\	, LongSubPath: InfoSol\dCodeV2\it\	, ShortSubPath: 
MSI (s) (B0:A4) [16:17:38:173]: Dir (source): Key: dirE392BE6BEA39F69849B0E8BFDE95A1DA	, Object: C:\ProgramData\Package Cache\{9CF4366F-4422-49E0-A3A5-C72DC5846540}v2.0.0.1028\	, LongSubPath: InfoSol\dCodeV2\hu\	, ShortSubPath: 
MSI (s) (B0:A4) [16:17:38:173]: Dir (source): Key: dir1424604976AE3158AC7908CE5FE4118E	, Object: C:\ProgramData\Package Cache\{9CF4366F-4422-49E0-A3A5-C72DC5846540}v2.0.0.1028\	, LongSubPath: InfoSol\dCodeV2\fr\	, ShortSubPath: 
MSI (s) (B0:A4) [16:17:38:173]: Dir (source): Key: dir2A24FBFB4DF949E967B760F13ACE1774	, Object: C:\ProgramData\Package Cache\{9CF4366F-4422-49E0-A3A5-C72DC5846540}v2.0.0.1028\	, LongSubPath: InfoSol\dCodeV2\Files\	, ShortSubPath: 
MSI (s) (B0:A4) [16:17:38:173]: Dir (source): Key: dir63A634F9A8BE5EC5B8B7424D6A18E4C4	, Object: C:\ProgramData\Package Cache\{9CF4366F-4422-49E0-A3A5-C72DC5846540}v2.0.0.1028\	, LongSubPath: InfoSol\dCodeV2\es\	, ShortSubPath: 
MSI (s) (B0:A4) [16:17:38:173]: Dir (source): Key: dirF7618158CE8FEC39DAC1DD18D359DD11	, Object: C:\ProgramData\Package Cache\{9CF4366F-4422-49E0-A3A5-C72DC5846540}v2.0.0.1028\	, LongSubPath: InfoSol\dCodeV2\de\	, ShortSubPath: 
MSI (s) (B0:A4) [16:17:38:173]: Doing action: PublishFeatures
Action ended 16:17:38: RegisterProduct. Return value 1.
Action start 16:17:38: PublishFeatures.
MSI (s) (B0:A4) [16:17:38:173]: Doing action: PublishProduct
Action ended 16:17:38: PublishFeatures. Return value 1.
Action start 16:17:38: PublishProduct.
MSI (s) (B0:A4) [16:17:38:173]: Re-publishing product - installing new package with existing product code.
MSI (s) (B0:A4) [16:17:38:173]: Skipping action: RunMainApp (condition is false)
MSI (s) (B0:A4) [16:17:38:173]: Doing action: InstallFinalize
Action ended 16:17:38: PublishProduct. Return value 1.
MSI (s) (B0:A4) [16:17:38:173]: Running Script: C:\WINDOWS\Installer\MSI1862.tmp
MSI (s) (B0:A4) [16:17:38:173]: PROPERTY CHANGE: Adding UpdateStarted property. Its value is '1'.
MSI (s) (B0:A4) [16:17:38:189]: Note: 1: 2265 2:  3: -2147287035 
MSI (s) (B0:A4) [16:17:38:189]: Machine policy value 'DisableRollback' is 0
MSI (s) (B0:A4) [16:17:38:189]: Note: 1: 1402 2: HKEY_LOCAL_MACHINE\Software\Microsoft\Windows\CurrentVersion\Installer\Rollback\Scripts 3: 2 
MSI (s) (B0:A4) [16:17:38:189]: Executing op: Header(Signature=1397708873,Version=500,Timestamp=1266450996,LangId=1033,Platform=0,ScriptType=1,ScriptMajorVersion=21,ScriptMinorVersion=4,ScriptAttributes=1)
Action start 16:17:38: InstallFinalize.
MSI (s) (B0:A4) [16:17:38:189]: Executing op: ProductInfo(ProductKey={9CF4366F-4422-49E0-A3A5-C72DC5846540},ProductName=dCode,PackageName=dCodeSetup.msi,Language=1033,Version=33554432,Assignment=1,ObsoleteArg=0,ProductIcon=ico_dCode.exe,,PackageCode={B177304C-F0E6-44CE-939A-56BC13DA3337},,,InstanceType=0,LUASetting=0,RemoteURTInstalls=0,ProductDeploymentFlags=3)
MSI (s) (B0:A4) [16:17:38:189]: Executing op: DialogInfo(Type=0,Argument=1033)
MSI (s) (B0:A4) [16:17:38:189]: Executing op: DialogInfo(Type=1,Argument=dCode)
MSI (s) (B0:A4) [16:17:38:189]: Executing op: RollbackInfo(,RollbackAction=Rollback,RollbackDescription=Rolling back action:,RollbackTemplate=[1],CleanupAction=RollbackCleanup,CleanupDescription=Removing backup files,CleanupTemplate=File: [1])
MSI (s) (B0:A4) [16:17:38:189]: Executing op: SetBaseline(Baseline=0,)
MSI (s) (B0:A4) [16:17:38:189]: Executing op: SetBaseline(Baseline=1,)
MSI (s) (B0:A4) [16:17:38:189]: Executing op: ActionStart(Name=ProcessComponents,Description=Updating component registration,)
MSI (s) (B0:A4) [16:17:38:189]: Executing op: ProgressTotal(Total=24,Type=1,ByteEquivalent=24000)
MSI (s) (B0:A4) [16:17:38:189]: Executing op: ComponentRegister(ComponentId={A97566F4-E580-4051-ADD2-5DBE7EE4FAE7},KeyPath=D:\dCodeV2\dCode.exe,State=3,,Disk=1,SharedDllRefCount=0,BinaryType=0)
MSI (s) (B0:A4) [16:17:38:189]: Executing op: ComponentRegister(ComponentId={D1499057-2CF6-4FFB-BFA9-2399C9D5FF45},KeyPath=D:\dCodeV2\dCode.exe.config,State=3,,Disk=1,SharedDllRefCount=0,BinaryType=0)
MSI (s) (B0:A4) [16:17:38:189]: Executing op: ComponentRegister(ComponentId={EC8CDADF-5847-4044-895C-2D79DC507BE3},KeyPath=D:\dCodeV2\dCode.Windows.Theme.dll,State=3,,Disk=1,SharedDllRefCount=0,BinaryType=0)
MSI (s) (B0:A4) [16:17:38:189]: Executing op: ComponentRegister(ComponentId={568D21B3-D797-46E8-AC6E-41947EBF0561},KeyPath=D:\dCodeV2\Ionic.Zip.Reduced.dll,State=3,,Disk=1,SharedDllRefCount=0,BinaryType=0)
MSI (s) (B0:A4) [16:17:38:189]: Executing op: ComponentRegister(ComponentId={83CA0371-6195-46C3-9EA1-D71EFBF22AB7},KeyPath=D:\dCodeV2\Xceed.Wpf.AvalonDock.dll,State=3,,Disk=1,SharedDllRefCount=0,BinaryType=0)
MSI (s) (B0:A4) [16:17:38:189]: Executing op: ComponentRegister(ComponentId={E2134F8D-4F5B-47A4-B29E-FD8CF89293B2},KeyPath=D:\dCodeV2\Xceed.Wpf.AvalonDock.Themes.Aero.dll,State=3,,Disk=1,SharedDllRefCount=0,BinaryType=0)
MSI (s) (B0:A4) [16:17:38:189]: Executing op: ComponentRegister(ComponentId={11329E8A-0E92-473F-9059-4179B872047E},KeyPath=D:\dCodeV2\Xceed.Wpf.AvalonDock.Themes.Metro.dll,State=3,,Disk=1,SharedDllRefCount=0,BinaryType=0)
MSI (s) (B0:A4) [16:17:38:189]: Executing op: ComponentRegister(ComponentId={EC678ABE-1E20-47D4-9899-EE44002D4E78},KeyPath=D:\dCodeV2\Xceed.Wpf.AvalonDock.Themes.VS2010.dll,State=3,,Disk=1,SharedDllRefCount=0,BinaryType=0)
MSI (s) (B0:A4) [16:17:38:189]: Executing op: ComponentRegister(ComponentId={78F88344-590B-4A72-96BC-F79FD3DB7FEA},KeyPath=D:\dCodeV2\Xceed.Wpf.DataGrid.dll,State=3,,Disk=1,SharedDllRefCount=0,BinaryType=0)
MSI (s) (B0:A4) [16:17:38:189]: Executing op: ComponentRegister(ComponentId={55732A90-A749-4120-8A42-D5A70EBDBCE5},KeyPath=D:\dCodeV2\Xceed.Wpf.Toolkit.dll,State=3,,Disk=1,SharedDllRefCount=0,BinaryType=0)
MSI (s) (B0:A4) [16:17:38:189]: Executing op: ComponentRegister(ComponentId={D73978F7-62EF-4505-9CD8-A836926208DD},KeyPath=D:\dCodeV2\de\Xceed.Wpf.AvalonDock.resources.dll,State=3,,Disk=1,SharedDllRefCount=0,BinaryType=0)
MSI (s) (B0:A4) [16:17:38:189]: Executing op: ComponentRegister(ComponentId={24071CE3-4CCA-439E-9B64-17C829E86321},KeyPath=D:\dCodeV2\es\Xceed.Wpf.AvalonDock.resources.dll,State=3,,Disk=1,SharedDllRefCount=0,BinaryType=0)
MSI (s) (B0:A4) [16:17:38:189]: Executing op: ComponentRegister(ComponentId={3F580EEE-A86F-4491-804E-C1E6347E6A13},KeyPath=D:\dCodeV2\Files\XDMConnector.js,State=3,,Disk=1,SharedDllRefCount=0,BinaryType=0)
MSI (s) (B0:A4) [16:17:38:189]: Executing op: ComponentRegister(ComponentId={4B6E3EAD-FDC0-48DB-AF70-A9E646823F08},KeyPath=D:\dCodeV2\fr\Xceed.Wpf.AvalonDock.resources.dll,State=3,,Disk=1,SharedDllRefCount=0,BinaryType=0)
MSI (s) (B0:A4) [16:17:38:189]: Executing op: ComponentRegister(ComponentId={662EF273-6BF5-4D72-817D-A569789283EC},KeyPath=D:\dCodeV2\hu\Xceed.Wpf.AvalonDock.resources.dll,State=3,,Disk=1,SharedDllRefCount=0,BinaryType=0)
MSI (s) (B0:A4) [16:17:38:204]: Executing op: ComponentRegister(ComponentId={EA657AD6-6BC6-487D-A8E8-280B3315B3E1},KeyPath=D:\dCodeV2\it\Xceed.Wpf.AvalonDock.resources.dll,State=3,,Disk=1,SharedDllRefCount=0,BinaryType=0)
MSI (s) (B0:A4) [16:17:38:204]: Executing op: ComponentRegister(ComponentId={9E78BC76-B6AE-412B-A277-E2A51FAE995D},KeyPath=D:\dCodeV2\pt-BR\Xceed.Wpf.AvalonDock.resources.dll,State=3,,Disk=1,SharedDllRefCount=0,BinaryType=0)
MSI (s) (B0:A4) [16:17:38:204]: Executing op: ComponentRegister(ComponentId={DDA9F846-44CA-47E3-887D-14030845BEB1},KeyPath=D:\dCodeV2\ro\Xceed.Wpf.AvalonDock.resources.dll,State=3,,Disk=1,SharedDllRefCount=0,BinaryType=0)
MSI (s) (B0:A4) [16:17:38:204]: Executing op: ComponentRegister(ComponentId={AA0E1E06-EAC7-4D26-AF2C-04FFBE2C8276},KeyPath=D:\dCodeV2\ru\Xceed.Wpf.AvalonDock.resources.dll,State=3,,Disk=1,SharedDllRefCount=0,BinaryType=0)
MSI (s) (B0:A4) [16:17:38:204]: Executing op: ComponentRegister(ComponentId={4E8045CF-EB49-4B9E-8553-F2E00499C0C2},KeyPath=D:\dCodeV2\sv\Xceed.Wpf.AvalonDock.resources.dll,State=3,,Disk=1,SharedDllRefCount=0,BinaryType=0)
MSI (s) (B0:A4) [16:17:38:204]: Executing op: ComponentRegister(ComponentId={9C6C8E94-D143-4BBB-A2A5-22998D5EC8B1},KeyPath=D:\dCodeV2\Xcelsius Addon\dcode_exp.xlx,State=3,,Disk=1,SharedDllRefCount=0,BinaryType=0)
MSI (s) (B0:A4) [16:17:38:204]: Executing op: ComponentRegister(ComponentId={ED160BEE-E813-41C4-BF29-F2315036789E},KeyPath=D:\dCodeV2\zh-Hans\Xceed.Wpf.AvalonDock.resources.dll,State=3,,Disk=1,SharedDllRefCount=0,BinaryType=0)
MSI (s) (B0:A4) [16:17:38:204]: Executing op: ComponentRegister(ComponentId={82D580C3-FD37-4359-84AC-9C65374AE58F},KeyPath=00:\DCode2\,State=3,,Disk=1,SharedDllRefCount=0,BinaryType=0)
MSI (s) (B0:A4) [16:17:38:204]: Executing op: ComponentRegister(ComponentId={089F1E24-7140-48A4-AA34-12D06812F018},KeyPath=02:\SOFTWARE\InfoSol\UKLabs\Products\000000077659311\,State=3,,Disk=1,SharedDllRefCount=0,BinaryType=0)
MSI (s) (B0:A4) [16:17:38:204]: Executing op: ActionStart(Name=InstallFiles,Description=Copying new files,Template=File: [1],  Directory: [9],  Size: [6])
MSI (s) (B0:A4) [16:17:38:204]: Executing op: ProgressTotal(Total=5187562,Type=0,ByteEquivalent=1)
MSI (s) (B0:A4) [16:17:38:204]: Executing op: SetTargetFolder(Folder=D:\dCodeV2\es\)
MSI (s) (B0:A4) [16:17:38:204]: Executing op: SetSourceFolder(Folder=1\InfoSol\dCodeV2\es\)
MSI (s) (B0:A4) [16:17:38:204]: Executing op: ChangeMedia(,MediaPrompt=Please insert the disk: InfoSol dCode Installation CD-ROM #1,MediaCabinet=dCodeSetup.cab,BytesPerTick=65536,CopierType=2,ModuleFileName=C:\WINDOWS\Installer\67c9e1f.msi,,,,,IsFirstPhysicalMedia=1)
MSI (s) (B0:A4) [16:17:38:204]: Executing op: RegisterSharedComponentProvider(,,File=fil16F3FA97F9AF80F1EB0305B2E5CB0DFA,Component={24071CE3-4CCA-439E-9B64-17C829E86321},ComponentVersion=3.0.0.0,ProductCode={9CF4366F-4422-49E0-A3A5-C72DC5846540},ProductVersion=2.0.0,PatchSize=0,PatchAttributes=0,PatchSequence=0,SharedComponent=0,IsFullFile=0)
MSI (s) (B0:A4) [16:17:38:204]: Executing op: FileCopy(SourceName=rxet7pg3.dll|Xceed.Wpf.AvalonDock.resources.dll,SourceCabKey=fil16F3FA97F9AF80F1EB0305B2E5CB0DFA,DestName=Xceed.Wpf.AvalonDock.resources.dll,Attributes=512,FileSize=6144,PerTick=65536,,VerifyMedia=1,,,,,CheckCRC=0,Version=3.0.0.0,Language=0,InstallMode=126091264,,,,,,,)
MSI (s) (B0:A4) [16:17:38:204]: File: D:\dCodeV2\es\Xceed.Wpf.AvalonDock.resources.dll;	Won't Overwrite;	Won't patch;	Existing file is of an equal version
MSI (s) (B0:A4) [16:17:38:204]: Executing op: SetTargetFolder(Folder=D:\dCodeV2\ru\)
MSI (s) (B0:A4) [16:17:38:204]: Executing op: SetSourceFolder(Folder=1\InfoSol\dCodeV2\ru\)
MSI (s) (B0:A4) [16:17:38:204]: Executing op: RegisterSharedComponentProvider(,,File=fil1A30AA3A3DA7AACF0BE038657101C130,Component={AA0E1E06-EAC7-4D26-AF2C-04FFBE2C8276},ComponentVersion=3.0.0.0,ProductCode={9CF4366F-4422-49E0-A3A5-C72DC5846540},ProductVersion=2.0.0,PatchSize=0,PatchAttributes=0,PatchSequence=0,SharedComponent=0,IsFullFile=0)
MSI (s) (B0:A4) [16:17:38:204]: Executing op: FileCopy(SourceName=oe9ffy-p.dll|Xceed.Wpf.AvalonDock.resources.dll,SourceCabKey=fil1A30AA3A3DA7AACF0BE038657101C130,DestName=Xceed.Wpf.AvalonDock.resources.dll,Attributes=512,FileSize=6144,PerTick=65536,,VerifyMedia=1,,,,,CheckCRC=0,Version=3.0.0.0,Language=0,InstallMode=126091264,,,,,,,)
MSI (s) (B0:A4) [16:17:38:204]: File: D:\dCodeV2\ru\Xceed.Wpf.AvalonDock.resources.dll;	Won't Overwrite;	Won't patch;	Existing file is of an equal version
MSI (s) (B0:A4) [16:17:38:204]: Executing op: SetTargetFolder(Folder=D:\dCodeV2\)
MSI (s) (B0:A4) [16:17:38:204]: Executing op: SetSourceFolder(Folder=1\InfoSol\dCodeV2\)
MSI (s) (B0:A4) [16:17:38:204]: Executing op: RegisterSharedComponentProvider(,,File=fil3CA8B6115A016E51F3BA10386CAEE377,Component={568D21B3-D797-46E8-AC6E-41947EBF0561},ComponentVersion=1.9.1.8,ProductCode={9CF4366F-4422-49E0-A3A5-C72DC5846540},ProductVersion=2.0.0,PatchSize=0,PatchAttributes=0,PatchSequence=0,SharedComponent=0,IsFullFile=0)
MSI (s) (B0:A4) [16:17:38:204]: Executing op: FileCopy(SourceName=uqmwplv0.dll|Ionic.Zip.Reduced.dll,SourceCabKey=fil3CA8B6115A016E51F3BA10386CAEE377,DestName=Ionic.Zip.Reduced.dll,Attributes=512,FileSize=253440,PerTick=65536,,VerifyMedia=1,,,,,CheckCRC=0,Version=1.9.1.8,Language=0,InstallMode=126091264,,,,,,,)
MSI (s) (B0:A4) [16:17:38:204]: File: D:\dCodeV2\Ionic.Zip.Reduced.dll;	Won't Overwrite;	Won't patch;	Existing file is of an equal version
MSI (s) (B0:A4) [16:17:38:204]: Executing op: SetTargetFolder(Folder=D:\dCodeV2\Xcelsius Addon\)
MSI (s) (B0:A4) [16:17:38:204]: Executing op: SetSourceFolder(Folder=1\InfoSol\dCodeV2\on8mpwcx\|InfoSol\dCodeV2\Xcelsius Addon\)
MSI (s) (B0:A4) [16:17:38:204]: Executing op: FileCopy(SourceName=tlrfoote.xlx|dcode_exp.xlx,SourceCabKey=fil41817259B4B34BC8F31CFC85BFFE39C0,DestName=dcode_exp.xlx,Attributes=512,FileSize=684745,PerTick=65536,,VerifyMedia=1,,,,,CheckCRC=0,,,InstallMode=126091264,HashOptions=0,HashPart1=-1778597529,HashPart2=1519837259,HashPart3=-286331573,HashPart4=632001718,,)
MSI (s) (B0:A4) [16:17:38:204]: File: D:\dCodeV2\Xcelsius Addon\dcode_exp.xlx;	Won't Overwrite;	Won't patch;	Existing file is unversioned and unmodified - hash matches source file
MSI (s) (B0:A4) [16:17:38:204]: Executing op: SetTargetFolder(Folder=D:\dCodeV2\Files\)
MSI (s) (B0:A4) [16:17:38:204]: Executing op: SetSourceFolder(Folder=1\InfoSol\dCodeV2\Files\)
MSI (s) (B0:A4) [16:17:38:204]: Executing op: FileCopy(SourceName=ywxyf04k.js|XDMConnector.js,SourceCabKey=fil48F0900CD04C8342ACDE0E865350719D,DestName=XDMConnector.js,Attributes=512,FileSize=28260,PerTick=65536,,VerifyMedia=1,,,,,CheckCRC=0,,,InstallMode=126091264,HashOptions=0,HashPart1=-113914959,HashPart2=1206944679,HashPart3=185244622,HashPart4=7505684,,)
MSI (s) (B0:A4) [16:17:38:204]: File: D:\dCodeV2\Files\XDMConnector.js;	Won't Overwrite;	Won't patch;	Existing file is unversioned and unmodified - hash matches source file
MSI (s) (B0:A4) [16:17:38:204]: Executing op: SetTargetFolder(Folder=D:\dCodeV2\)
MSI (s) (B0:A4) [16:17:38:204]: Executing op: SetSourceFolder(Folder=1\InfoSol\dCodeV2\)
MSI (s) (B0:A4) [16:17:38:204]: Executing op: FileCopy(SourceName=8aaz1yt3.con|dCode.exe.config,SourceCabKey=fil57C93E200D1C16709FA745A0D6B715B2,DestName=dCode.exe.config,Attributes=512,FileSize=189,PerTick=65536,,VerifyMedia=1,,,,,CheckCRC=0,,,InstallMode=126091264,HashOptions=0,HashPart1=804064986,HashPart2=-2012066031,HashPart3=759553736,HashPart4=1851364699,,)
MSI (s) (B0:A4) [16:17:38:204]: File: D:\dCodeV2\dCode.exe.config;	Won't Overwrite;	Won't patch;	Existing file is unversioned and unmodified - hash matches source file
MSI (s) (B0:A4) [16:17:38:204]: Executing op: SetTargetFolder(Folder=D:\dCodeV2\sv\)
MSI (s) (B0:A4) [16:17:38:204]: Executing op: SetSourceFolder(Folder=1\InfoSol\dCodeV2\sv\)
MSI (s) (B0:A4) [16:17:38:204]: Executing op: RegisterSharedComponentProvider(,,File=fil81D9C4E8BAAFC6F8076A8E9B5237A321,Component={4E8045CF-EB49-4B9E-8553-F2E00499C0C2},ComponentVersion=3.0.0.0,ProductCode={9CF4366F-4422-49E0-A3A5-C72DC5846540},ProductVersion=2.0.0,PatchSize=0,PatchAttributes=0,PatchSequence=0,SharedComponent=0,IsFullFile=0)
MSI (s) (B0:A4) [16:17:38:204]: Executing op: FileCopy(SourceName=hdcnile6.dll|Xceed.Wpf.AvalonDock.resources.dll,SourceCabKey=fil81D9C4E8BAAFC6F8076A8E9B5237A321,DestName=Xceed.Wpf.AvalonDock.resources.dll,Attributes=512,FileSize=5632,PerTick=65536,,VerifyMedia=1,,,,,CheckCRC=0,Version=3.0.0.0,Language=0,InstallMode=126091264,,,,,,,)
MSI (s) (B0:A4) [16:17:38:204]: File: D:\dCodeV2\sv\Xceed.Wpf.AvalonDock.resources.dll;	Won't Overwrite;	Won't patch;	Existing file is of an equal version
MSI (s) (B0:A4) [16:17:38:204]: Executing op: SetTargetFolder(Folder=D:\dCodeV2\)
MSI (s) (B0:A4) [16:17:38:204]: Executing op: SetSourceFolder(Folder=1\InfoSol\dCodeV2\)
MSI (s) (B0:A4) [16:17:38:204]: Executing op: RegisterSharedComponentProvider(,,File=fil839DFBD4E79361C172CBF935B0177A4A,Component={EC678ABE-1E20-47D4-9899-EE44002D4E78},ComponentVersion=3.0.0.0,ProductCode={9CF4366F-4422-49E0-A3A5-C72DC5846540},ProductVersion=2.0.0,PatchSize=0,PatchAttributes=0,PatchSequence=0,SharedComponent=0,IsFullFile=0)
MSI (s) (B0:A4) [16:17:38:204]: Executing op: FileCopy(SourceName=nca1mf9u.dll|Xceed.Wpf.AvalonDock.Themes.VS2010.dll,SourceCabKey=fil839DFBD4E79361C172CBF935B0177A4A,DestName=Xceed.Wpf.AvalonDock.Themes.VS2010.dll,Attributes=512,FileSize=83456,PerTick=65536,,VerifyMedia=1,,,,,CheckCRC=0,Version=3.0.0.0,Language=0,InstallMode=126091264,,,,,,,)
MSI (s) (B0:A4) [16:17:38:204]: File: D:\dCodeV2\Xceed.Wpf.AvalonDock.Themes.VS2010.dll;	Won't Overwrite;	Won't patch;	Existing file is of an equal version
MSI (s) (B0:A4) [16:17:38:204]: Executing op: SetTargetFolder(Folder=D:\dCodeV2\pt-BR\)
MSI (s) (B0:A4) [16:17:38:204]: Executing op: SetSourceFolder(Folder=1\InfoSol\dCodeV2\pt-BR\)
MSI (s) (B0:A4) [16:17:38:204]: Executing op: RegisterSharedComponentProvider(,,File=fil83BD32286A9E5FD0BF6354BD4EC62C76,Component={9E78BC76-B6AE-412B-A277-E2A51FAE995D},ComponentVersion=3.0.0.0,ProductCode={9CF4366F-4422-49E0-A3A5-C72DC5846540},ProductVersion=2.0.0,PatchSize=0,PatchAttributes=0,PatchSequence=0,SharedComponent=0,IsFullFile=0)
MSI (s) (B0:A4) [16:17:38:204]: Executing op: FileCopy(SourceName=yv9frms5.dll|Xceed.Wpf.AvalonDock.resources.dll,SourceCabKey=fil83BD32286A9E5FD0BF6354BD4EC62C76,DestName=Xceed.Wpf.AvalonDock.resources.dll,Attributes=512,FileSize=6144,PerTick=65536,,VerifyMedia=1,,,,,CheckCRC=0,Version=3.0.0.0,Language=0,InstallMode=126091264,,,,,,,)
MSI (s) (B0:A4) [16:17:38:204]: File: D:\dCodeV2\pt-BR\Xceed.Wpf.AvalonDock.resources.dll;	Won't Overwrite;	Won't patch;	Existing file is of an equal version
MSI (s) (B0:A4) [16:17:38:204]: Executing op: SetTargetFolder(Folder=D:\dCodeV2\)
MSI (s) (B0:A4) [16:17:38:204]: Executing op: SetSourceFolder(Folder=1\InfoSol\dCodeV2\)
MSI (s) (B0:A4) [16:17:38:204]: Executing op: RegisterSharedComponentProvider(,,File=fil84E71B9015DD4214C59FE95A8CCB0DFF,Component={E2134F8D-4F5B-47A4-B29E-FD8CF89293B2},ComponentVersion=3.0.0.0,ProductCode={9CF4366F-4422-49E0-A3A5-C72DC5846540},ProductVersion=2.0.0,PatchSize=0,PatchAttributes=0,PatchSequence=0,SharedComponent=0,IsFullFile=0)
MSI (s) (B0:A4) [16:17:38:204]: Executing op: FileCopy(SourceName=phtrv_tr.dll|Xceed.Wpf.AvalonDock.Themes.Aero.dll,SourceCabKey=fil84E71B9015DD4214C59FE95A8CCB0DFF,DestName=Xceed.Wpf.AvalonDock.Themes.Aero.dll,Attributes=512,FileSize=86016,PerTick=65536,,VerifyMedia=1,,,,,CheckCRC=0,Version=3.0.0.0,Language=0,InstallMode=126091264,,,,,,,)
MSI (s) (B0:A4) [16:17:38:204]: File: D:\dCodeV2\Xceed.Wpf.AvalonDock.Themes.Aero.dll;	Won't Overwrite;	Won't patch;	Existing file is of an equal version
MSI (s) (B0:A4) [16:17:38:204]: Executing op: RegisterSharedComponentProvider(,,File=fil8E9A142548E1364F3ABCDCCE9A16D022,Component={EC8CDADF-5847-4044-895C-2D79DC507BE3},ComponentVersion=1.0.0.0,ProductCode={9CF4366F-4422-49E0-A3A5-C72DC5846540},ProductVersion=2.0.0,PatchSize=0,PatchAttributes=0,PatchSequence=0,SharedComponent=0,IsFullFile=0)
MSI (s) (B0:A4) [16:17:38:204]: Executing op: FileCopy(SourceName=b6ougi1g.dll|dCode.Windows.Theme.dll,SourceCabKey=fil8E9A142548E1364F3ABCDCCE9A16D022,DestName=dCode.Windows.Theme.dll,Attributes=512,FileSize=28672,PerTick=65536,,VerifyMedia=1,,,,,CheckCRC=0,Version=1.0.0.0,Language=0,InstallMode=126091264,,,,,,,)
MSI (s) (B0:A4) [16:17:38:204]: File: D:\dCodeV2\dCode.Windows.Theme.dll;	Won't Overwrite;	Won't patch;	Existing file is of an equal version
MSI (s) (B0:A4) [16:17:38:204]: Executing op: RegisterSharedComponentProvider(,,File=filB0B04CB8C3FCE89BC6D8809034F9FE96,Component={83CA0371-6195-46C3-9EA1-D71EFBF22AB7},ComponentVersion=3.0.0.0,ProductCode={9CF4366F-4422-49E0-A3A5-C72DC5846540},ProductVersion=2.0.0,PatchSize=0,PatchAttributes=0,PatchSequence=0,SharedComponent=0,IsFullFile=0)
MSI (s) (B0:A4) [16:17:38:204]: Executing op: FileCopy(SourceName=mfexdivy.dll|Xceed.Wpf.AvalonDock.dll,SourceCabKey=filB0B04CB8C3FCE89BC6D8809034F9FE96,DestName=Xceed.Wpf.AvalonDock.dll,Attributes=512,FileSize=415744,PerTick=65536,,VerifyMedia=1,,,,,CheckCRC=0,Version=3.0.0.0,Language=0,InstallMode=126091264,,,,,,,)
MSI (s) (B0:A4) [16:17:38:204]: File: D:\dCodeV2\Xceed.Wpf.AvalonDock.dll;	Won't Overwrite;	Won't patch;	Existing file is of an equal version
MSI (s) (B0:A4) [16:17:38:204]: Executing op: SetTargetFolder(Folder=D:\dCodeV2\ro\)
MSI (s) (B0:A4) [16:17:38:204]: Executing op: SetSourceFolder(Folder=1\InfoSol\dCodeV2\ro\)
MSI (s) (B0:A4) [16:17:38:204]: Executing op: RegisterSharedComponentProvider(,,File=filB7BB86E760A41547414C4C3053D2896B,Component={DDA9F846-44CA-47E3-887D-14030845BEB1},ComponentVersion=3.0.0.0,ProductCode={9CF4366F-4422-49E0-A3A5-C72DC5846540},ProductVersion=2.0.0,PatchSize=0,PatchAttributes=0,PatchSequence=0,SharedComponent=0,IsFullFile=0)
MSI (s) (B0:A4) [16:17:38:204]: Executing op: FileCopy(SourceName=iewuwy29.dll|Xceed.Wpf.AvalonDock.resources.dll,SourceCabKey=filB7BB86E760A41547414C4C3053D2896B,DestName=Xceed.Wpf.AvalonDock.resources.dll,Attributes=512,FileSize=6144,PerTick=65536,,VerifyMedia=1,,,,,CheckCRC=0,Version=3.0.0.0,Language=0,InstallMode=126091264,,,,,,,)
MSI (s) (B0:A4) [16:17:38:220]: File: D:\dCodeV2\ro\Xceed.Wpf.AvalonDock.resources.dll;	Won't Overwrite;	Won't patch;	Existing file is of an equal version
MSI (s) (B0:A4) [16:17:38:220]: Executing op: SetTargetFolder(Folder=D:\dCodeV2\)
MSI (s) (B0:A4) [16:17:38:220]: Executing op: SetSourceFolder(Folder=1\InfoSol\dCodeV2\)
MSI (s) (B0:A4) [16:17:38:220]: Executing op: RegisterSharedComponentProvider(,,File=filB7D4507DB5B8EF8C40107F815A0DE3F8,Component={11329E8A-0E92-473F-9059-4179B872047E},ComponentVersion=3.0.0.0,ProductCode={9CF4366F-4422-49E0-A3A5-C72DC5846540},ProductVersion=2.0.0,PatchSize=0,PatchAttributes=0,PatchSequence=0,SharedComponent=0,IsFullFile=0)
MSI (s) (B0:A4) [16:17:38:220]: Executing op: FileCopy(SourceName=cijvutxe.dll|Xceed.Wpf.AvalonDock.Themes.Metro.dll,SourceCabKey=filB7D4507DB5B8EF8C40107F815A0DE3F8,DestName=Xceed.Wpf.AvalonDock.Themes.Metro.dll,Attributes=512,FileSize=78848,PerTick=65536,,VerifyMedia=1,,,,,CheckCRC=0,Version=3.0.0.0,Language=0,InstallMode=126091264,,,,,,,)
MSI (s) (B0:A4) [16:17:38:220]: File: D:\dCodeV2\Xceed.Wpf.AvalonDock.Themes.Metro.dll;	Won't Overwrite;	Won't patch;	Existing file is of an equal version
MSI (s) (B0:A4) [16:17:38:220]: Executing op: RegisterSharedComponentProvider(,,File=filBF81426B5A31A52767A996A6EF7EEF70,Component={55732A90-A749-4120-8A42-D5A70EBDBCE5},ComponentVersion=3.0.0.0,ProductCode={9CF4366F-4422-49E0-A3A5-C72DC5846540},ProductVersion=2.0.0,PatchSize=0,PatchAttributes=0,PatchSequence=0,SharedComponent=0,IsFullFile=0)
MSI (s) (B0:A4) [16:17:38:220]: Executing op: FileCopy(SourceName=xol6jpel.dll|Xceed.Wpf.Toolkit.dll,SourceCabKey=filBF81426B5A31A52767A996A6EF7EEF70,DestName=Xceed.Wpf.Toolkit.dll,Attributes=512,FileSize=1054720,PerTick=65536,,VerifyMedia=1,,,,,CheckCRC=0,Version=3.0.0.0,Language=0,InstallMode=126091264,,,,,,,)
MSI (s) (B0:A4) [16:17:38:220]: File: D:\dCodeV2\Xceed.Wpf.Toolkit.dll;	Won't Overwrite;	Won't patch;	Existing file is of an equal version
MSI (s) (B0:A4) [16:17:38:220]: Executing op: RegisterSharedComponentProvider(,,File=filC9583F2592DD76E8C0A5A622FB39BEAF,Component={A97566F4-E580-4051-ADD2-5DBE7EE4FAE7},ComponentVersion=2.0.0.1028,ProductCode={9CF4366F-4422-49E0-A3A5-C72DC5846540},ProductVersion=2.0.0,PatchSize=0,PatchAttributes=0,PatchSequence=0,SharedComponent=0,IsFullFile=0)
MSI (s) (B0:A4) [16:17:38:220]: Executing op: FileCopy(SourceName=dCode.exe,SourceCabKey=filC9583F2592DD76E8C0A5A622FB39BEAF,DestName=dCode.exe,Attributes=512,FileSize=185856,PerTick=65536,,VerifyMedia=1,,,,,CheckCRC=0,Version=2.0.0.1028,Language=0,InstallMode=126091264,,,,,,,)
MSI (s) (B0:A4) [16:17:38:220]: File: D:\dCodeV2\dCode.exe;	Overwrite;	Won't patch;	Existing file is a lower version
MSI (s) (B0:A4) [16:17:38:220]: Source for file 'filC9583F2592DD76E8C0A5A622FB39BEAF' is compressed
MSI (s) (B0:A4) [16:17:38:220]: Re-applying security from existing file.
MSI (s) (B0:A4) [16:17:38:220]: Verifying accessibility of file: dCode.exe
MSI (s) (B0:A4) [16:17:38:220]: Note: 1: 2318 2:  
MSI (s) (B0:A4) [16:17:38:220]: Note: 1: 2318 2:  
MSI (s) (B0:A4) [16:17:38:235]: Executing op: SetTargetFolder(Folder=D:\dCodeV2\hu\)
MSI (s) (B0:A4) [16:17:38:235]: Executing op: SetSourceFolder(Folder=1\InfoSol\dCodeV2\hu\)
MSI (s) (B0:A4) [16:17:38:235]: Executing op: RegisterSharedComponentProvider(,,File=filCA24800BFC1E654137EFD4B5B564AEF2,Component={662EF273-6BF5-4D72-817D-A569789283EC},ComponentVersion=3.0.0.0,ProductCode={9CF4366F-4422-49E0-A3A5-C72DC5846540},ProductVersion=2.0.0,PatchSize=0,PatchAttributes=0,PatchSequence=0,SharedComponent=0,IsFullFile=0)
MSI (s) (B0:A4) [16:17:38:235]: Executing op: FileCopy(SourceName=1xjhqdpb.dll|Xceed.Wpf.AvalonDock.resources.dll,SourceCabKey=filCA24800BFC1E654137EFD4B5B564AEF2,DestName=Xceed.Wpf.AvalonDock.resources.dll,Attributes=512,FileSize=6144,PerTick=65536,,VerifyMedia=1,,,,,CheckCRC=0,Version=3.0.0.0,Language=0,InstallMode=126091264,,,,,,,)
MSI (s) (B0:A4) [16:17:38:235]: File: D:\dCodeV2\hu\Xceed.Wpf.AvalonDock.resources.dll;	Won't Overwrite;	Won't patch;	Existing file is of an equal version
MSI (s) (B0:A4) [16:17:38:235]: Executing op: SetTargetFolder(Folder=D:\dCodeV2\zh-Hans\)
MSI (s) (B0:A4) [16:17:38:235]: Executing op: SetSourceFolder(Folder=1\InfoSol\dCodeV2\zh-Hans\)
MSI (s) (B0:A4) [16:17:38:235]: Executing op: RegisterSharedComponentProvider(,,File=filE65F50BE3B005BB7D68E4C893C4FA1E0,Component={ED160BEE-E813-41C4-BF29-F2315036789E},ComponentVersion=3.0.0.0,ProductCode={9CF4366F-4422-49E0-A3A5-C72DC5846540},ProductVersion=2.0.0,PatchSize=0,PatchAttributes=0,PatchSequence=0,SharedComponent=0,IsFullFile=0)
MSI (s) (B0:A4) [16:17:38:235]: Executing op: FileCopy(SourceName=zrizvplh.dll|Xceed.Wpf.AvalonDock.resources.dll,SourceCabKey=filE65F50BE3B005BB7D68E4C893C4FA1E0,DestName=Xceed.Wpf.AvalonDock.resources.dll,Attributes=512,FileSize=5632,PerTick=65536,,VerifyMedia=1,,,,,CheckCRC=0,Version=3.0.0.0,Language=0,InstallMode=126091264,,,,,,,)
MSI (s) (B0:A4) [16:17:38:235]: File: D:\dCodeV2\zh-Hans\Xceed.Wpf.AvalonDock.resources.dll;	Won't Overwrite;	Won't patch;	Existing file is of an equal version
MSI (s) (B0:A4) [16:17:38:235]: Executing op: SetTargetFolder(Folder=D:\dCodeV2\it\)
MSI (s) (B0:A4) [16:17:38:235]: Executing op: SetSourceFolder(Folder=1\InfoSol\dCodeV2\it\)
MSI (s) (B0:A4) [16:17:38:235]: Executing op: RegisterSharedComponentProvider(,,File=filF34F65631E369B8BBA5B8A1BA4C5BC68,Component={EA657AD6-6BC6-487D-A8E8-280B3315B3E1},ComponentVersion=3.0.0.0,ProductCode={9CF4366F-4422-49E0-A3A5-C72DC5846540},ProductVersion=2.0.0,PatchSize=0,PatchAttributes=0,PatchSequence=0,SharedComponent=0,IsFullFile=0)
MSI (s) (B0:A4) [16:17:38:235]: Executing op: FileCopy(SourceName=uwtpkvbn.dll|Xceed.Wpf.AvalonDock.resources.dll,SourceCabKey=filF34F65631E369B8BBA5B8A1BA4C5BC68,DestName=Xceed.Wpf.AvalonDock.resources.dll,Attributes=512,FileSize=6144,PerTick=65536,,VerifyMedia=1,,,,,CheckCRC=0,Version=3.0.0.0,Language=0,InstallMode=126091264,,,,,,,)
MSI (s) (B0:A4) [16:17:38:235]: File: D:\dCodeV2\it\Xceed.Wpf.AvalonDock.resources.dll;	Won't Overwrite;	Won't patch;	Existing file is of an equal version
MSI (s) (B0:A4) [16:17:38:235]: Executing op: SetTargetFolder(Folder=D:\dCodeV2\de\)
MSI (s) (B0:A4) [16:17:38:235]: Executing op: SetSourceFolder(Folder=1\InfoSol\dCodeV2\de\)
MSI (s) (B0:A4) [16:17:38:235]: Executing op: RegisterSharedComponentProvider(,,File=filF55F859B5408C9A2CEBE68F77DA2DBF5,Component={D73978F7-62EF-4505-9CD8-A836926208DD},ComponentVersion=3.0.0.0,ProductCode={9CF4366F-4422-49E0-A3A5-C72DC5846540},ProductVersion=2.0.0,PatchSize=0,PatchAttributes=0,PatchSequence=0,SharedComponent=0,IsFullFile=0)
MSI (s) (B0:A4) [16:17:38:235]: Executing op: FileCopy(SourceName=pvrlvtvh.dll|Xceed.Wpf.AvalonDock.resources.dll,SourceCabKey=filF55F859B5408C9A2CEBE68F77DA2DBF5,DestName=Xceed.Wpf.AvalonDock.resources.dll,Attributes=512,FileSize=6144,PerTick=65536,,VerifyMedia=1,,,,,CheckCRC=0,Version=3.0.0.0,Language=0,InstallMode=126091264,,,,,,,)
MSI (s) (B0:A4) [16:17:38:235]: File: D:\dCodeV2\de\Xceed.Wpf.AvalonDock.resources.dll;	Won't Overwrite;	Won't patch;	Existing file is of an equal version
MSI (s) (B0:A4) [16:17:38:235]: Executing op: SetTargetFolder(Folder=D:\dCodeV2\fr\)
MSI (s) (B0:A4) [16:17:38:235]: Executing op: SetSourceFolder(Folder=1\InfoSol\dCodeV2\fr\)
MSI (s) (B0:A4) [16:17:38:235]: Executing op: RegisterSharedComponentProvider(,,File=filF77D1A461FA1856B089BE263CE3C693C,Component={4B6E3EAD-FDC0-48DB-AF70-A9E646823F08},ComponentVersion=3.0.0.0,ProductCode={9CF4366F-4422-49E0-A3A5-C72DC5846540},ProductVersion=2.0.0,PatchSize=0,PatchAttributes=0,PatchSequence=0,SharedComponent=0,IsFullFile=0)
MSI (s) (B0:A4) [16:17:38:235]: Executing op: FileCopy(SourceName=h9w652we.dll|Xceed.Wpf.AvalonDock.resources.dll,SourceCabKey=filF77D1A461FA1856B089BE263CE3C693C,DestName=Xceed.Wpf.AvalonDock.resources.dll,Attributes=512,FileSize=6144,PerTick=65536,,VerifyMedia=1,,,,,CheckCRC=0,Version=3.0.0.0,Language=0,InstallMode=126091264,,,,,,,)
MSI (s) (B0:A4) [16:17:38:235]: File: D:\dCodeV2\fr\Xceed.Wpf.AvalonDock.resources.dll;	Won't Overwrite;	Won't patch;	Existing file is of an equal version
MSI (s) (B0:A4) [16:17:38:235]: Executing op: SetTargetFolder(Folder=D:\dCodeV2\)
MSI (s) (B0:A4) [16:17:38:235]: Executing op: SetSourceFolder(Folder=1\InfoSol\dCodeV2\)
MSI (s) (B0:A4) [16:17:38:235]: Executing op: RegisterSharedComponentProvider(,,File=filFD9455F85AAF3711A138284112EAE42C,Component={78F88344-590B-4A72-96BC-F79FD3DB7FEA},ComponentVersion=3.0.0.0,ProductCode={9CF4366F-4422-49E0-A3A5-C72DC5846540},ProductVersion=2.0.0,PatchSize=0,PatchAttributes=0,PatchSequence=0,SharedComponent=0,IsFullFile=0)
MSI (s) (B0:A4) [16:17:38:235]: Executing op: FileCopy(SourceName=udqtnlce.dll|Xceed.Wpf.DataGrid.dll,SourceCabKey=filFD9455F85AAF3711A138284112EAE42C,DestName=Xceed.Wpf.DataGrid.dll,Attributes=512,FileSize=2227200,PerTick=65536,,VerifyMedia=1,,,,,CheckCRC=0,Version=3.0.0.0,Language=0,InstallMode=126091264,,,,,,,)
MSI (s) (B0:A4) [16:17:38:251]: File: D:\dCodeV2\Xceed.Wpf.DataGrid.dll;	Won't Overwrite;	Won't patch;	Existing file is of an equal version
MSI (s) (B0:A4) [16:17:38:251]: Executing op: CacheSizeFlush(,)
MSI (s) (B0:A4) [16:17:38:251]: Executing op: ActionStart(Name=WriteRegistryValues,Description=Writing system registry values,Template=Key: [1], Name: [2], Value: [3])
MSI (s) (B0:A4) [16:17:38:253]: Executing op: ProgressTotal(Total=10,Type=1,ByteEquivalent=13200)
MSI (s) (B0:A4) [16:17:38:253]: Executing op: RegOpenKey(,Key=DCode2,,BinaryType=0,,)
MSI (s) (B0:A4) [16:17:38:253]: Executing op: RegAddValue(,Value=URL:DCode Protocol,)
MSI (s) (B0:A4) [16:17:38:254]: Executing op: RegAddValue(Name=URL Protocol,,)
MSI (s) (B0:A4) [16:17:38:254]: Executing op: RegOpenKey(,Key=DCode2\DefaultIcon,,BinaryType=0,,)
MSI (s) (B0:A4) [16:17:38:254]: Executing op: RegAddValue(,Value=D:\dCodeV2\dCode.exe,0,)
MSI (s) (B0:A4) [16:17:38:254]: Executing op: RegOpenKey(,Key=DCode2\shell,,BinaryType=0,,)
MSI (s) (B0:A4) [16:17:38:254]: Executing op: RegAddValue(,,)
MSI (s) (B0:A4) [16:17:38:255]: Executing op: RegOpenKey(,Key=DCode2\shell\open,,BinaryType=0,,)
MSI (s) (B0:A4) [16:17:38:255]: Executing op: RegAddValue(,,)
MSI (s) (B0:A4) [16:17:38:255]: Executing op: RegOpenKey(,Key=DCode2\shell\open\command,,BinaryType=0,,)
MSI (s) (B0:A4) [16:17:38:255]: Executing op: RegAddValue(,Value="D:\dCodeV2\dCode.exe" "%1",)
MSI (s) (B0:A4) [16:17:38:255]: Executing op: RegOpenKey(Root=-2147483646,Key=SOFTWARE\InfoSol\UKLabs\Products\000000077659311,,BinaryType=0,,)
MSI (s) (B0:A4) [16:17:38:255]: Executing op: RegAddValue(,,)
MSI (s) (B0:A4) [16:17:38:256]: Executing op: RegAddValue(Name=Name,Value=dCode,)
MSI (s) (B0:A4) [16:17:38:256]: Executing op: ActionStart(Name=RegisterProduct,Description=Registering product,Template=[1])
MSI (s) (B0:A4) [16:17:38:256]: Executing op: ChangeMedia(,MediaPrompt=Please insert the disk: InfoSol dCode Installation CD-ROM #1,MediaCabinet=dCodeSetup.cab,BytesPerTick=0,CopierType=2,ModuleFileName=C:\WINDOWS\Installer\67c9e1f.msi,,,,,IsFirstPhysicalMedia=1)
MSI (s) (B0:A4) [16:17:38:256]: Executing op: DatabaseCopy(DatabasePath=C:\WINDOWS\Installer\67c9e1f.msi,ProductCode={9CF4366F-4422-49E0-A3A5-C72DC5846540},,,)
MSI (s) (B0:A4) [16:17:38:257]: Verifying accessibility of file: 67c9e19.msi
MSI (s) (B0:A4) [16:17:38:258]: File will have security applied from OpCode.
MSI (s) (B0:A4) [16:17:38:258]: Executing op: ProductRegister(UpgradeCode={0FDA3E8D-EA53-402A-BEAD-FE440A87769E},VersionString=2.0.0.1028,,,,InstallSource=C:\ProgramData\Package Cache\{9CF4366F-4422-49E0-A3A5-C72DC5846540}v2.0.0.1028\,Publisher=InfoSol Ltd,,,,NoModify=1,,,,,,,SystemComponent=1,EstimatedSize=0,,,,)
MSI (s) (B0:A4) [16:17:38:258]: Executing op: ProductCPDisplayInfoRegister()
MSI (s) (B0:A4) [16:17:38:258]: Executing op: ActionStart(Name=PublishFeatures,Description=Publishing Product Features,Template=Feature: [1])
MSI (s) (B0:A4) [16:17:38:258]: Executing op: FeaturePublish(Feature=MainProgram,Parent=Complete,Absent=2,Component=MpKO_v_0b8p3[3fo=MWs&MR=lAf~dANeZ6YcwAR=]b@%uLfd`8`@LyN`^V,r2@QnCrO2l=o53`WxKV3G@ADFR$b2h=_,Yv,N}xrcP-.aqjx2%?YFeBUOPSIb?znT(ORGu=xZW{N&e`RPq6B}t(Z?*?4Q01=ro[aNbvksNI(mw?i!0K[BY=GtV`IOC{)6x8s-$y^A?2prT,d2np2Y3=~?8X5XQG&pSD8Y.w~9g9^I?Bijf3g-hLQF8lL7&=Jn{1sX}K8)yyb8@a,MK?)DL.s4wC`%y`UpHI'jt@290zINPA$uuANDtv@EA?B8sY&[=rUqsv=xZOJIy8vekB^Bq'*FD3]8pc$u+?E30~!7`h-bZ)f`_N2el@^uizzb@T*NblW7AGOsA@%o@AqIXKZgT7D?ZDZzD@'RQ6Y5=o.b}+x4u%}g.91lO'4q16xZpJ8'ROG{_9[qw`Hu}(9Vh1Uj%r8SE??4?skV2?$+)
MSI (s) (B0:A4) [16:17:38:258]: Executing op: FeaturePublish(Feature=Complete,,Absent=2,)
MSI (s) (B0:A4) [16:17:38:258]: Executing op: ActionStart(Name=PublishProduct,Description=Publishing product information,)
MSI (s) (B0:A4) [16:17:38:258]: Executing op: IconCreate(Icon=ico_dCode.exe,Data=BinaryData)
MSI (s) (B0:A4) [16:17:38:258]: Verifying accessibility of file: ico_dCode.exe
MSI (s) (B0:A4) [16:17:38:273]: Note: 1: 2318 2:  
MSI (s) (B0:A4) [16:17:38:273]: Executing op: PackageCodePublish(PackageKey={B177304C-F0E6-44CE-939A-56BC13DA3337})
MSI (s) (B0:A4) [16:17:38:273]: Executing op: CleanupConfigData()
MSI (s) (B0:A4) [16:17:38:273]: Executing op: RegisterPatchOrder(Continue=0,SequenceType=1,Remove=0)
MSI (s) (B0:A4) [16:17:38:273]: Executing op: ProductPublishUpdate()
MSI (s) (B0:A4) [16:17:38:273]: Executing op: SourceListRegisterLastUsed(SourceProduct={9CF4366F-4422-49E0-A3A5-C72DC5846540},LastUsedSource=C:\ProgramData\Package Cache\{9CF4366F-4422-49E0-A3A5-C72DC5846540}v2.0.0.1028\)
MSI (s) (B0:A4) [16:17:38:273]: Entering CMsiConfigurationManager::SetLastUsedSource.
MSI (s) (B0:A4) [16:17:38:273]: Specifed source is not already in a list.
MSI (s) (B0:A4) [16:17:38:273]: User policy value 'SearchOrder' is 'nmu'
MSI (s) (B0:A4) [16:17:38:273]: Adding new sources is allowed.
MSI (s) (B0:A4) [16:17:38:273]: Added new source 'C:\ProgramData\Package Cache\{9CF4366F-4422-49E0-A3A5-C72DC5846540}v2.0.0.1028\' with index '2'
MSI (s) (B0:A4) [16:17:38:273]: Set LastUsedSource to: C:\ProgramData\Package Cache\{9CF4366F-4422-49E0-A3A5-C72DC5846540}v2.0.0.1028\.
MSI (s) (B0:A4) [16:17:38:273]: Set LastUsedType to: n.
MSI (s) (B0:A4) [16:17:38:273]: Set LastUsedIndex to: 2.
MSI (s) (B0:A4) [16:17:38:273]: Executing op: End(Checksum=0,ProgressTotalHDWord=0,ProgressTotalLDWord=9258378)
MSI (s) (B0:A4) [16:17:38:273]: Note: 1: 2265 2:  3: -2147287035 
MSI (s) (B0:A4) [16:17:38:273]: User policy value 'DisableRollback' is 0
MSI (s) (B0:A4) [16:17:38:273]: Machine policy value 'DisableRollback' is 0
MSI (s) (B0:A4) [16:17:38:289]: Note: 1: 2265 2:  3: -2147287035 
MSI (s) (B0:A4) [16:17:38:289]: Note: 1: 2318 2:  
MSI (s) (B0:A4) [16:17:38:289]: Note: 1: 2318 2:  
MSI (s) (B0:A4) [16:17:38:289]: Note: 1: 2318 2:  
MSI (s) (B0:A4) [16:17:38:289]: No System Restore sequence number for this installation.
MSI (s) (B0:A4) [16:17:38:289]: Unlocking Server
MSI (s) (B0:A4) [16:17:38:304]: PROPERTY CHANGE: Deleting UpdateStarted property. Its current value is '1'.
Action ended 16:17:38: InstallFinalize. Return value 1.
Action ended 16:17:38: INSTALL. Return value 1.
Property(S): DiskPrompt = InfoSol dCode Installation [1]
Property(S): WIXNETFX4RELEASEINSTALLED = #461308
Property(S): INSTALLDIR = D:\dCodeV2\
Property(S): dirF7618158CE8FEC39DAC1DD18D359DD11 = D:\dCodeV2\de\
Property(S): dir63A634F9A8BE5EC5B8B7424D6A18E4C4 = D:\dCodeV2\es\
Property(S): dir2A24FBFB4DF949E967B760F13ACE1774 = D:\dCodeV2\Files\
Property(S): dir1424604976AE3158AC7908CE5FE4118E = D:\dCodeV2\fr\
Property(S): dirE392BE6BEA39F69849B0E8BFDE95A1DA = D:\dCodeV2\hu\
Property(S): dirFCEE6B4345A27586A07C0608D2A46020 = D:\dCodeV2\it\
Property(S): dir06451880B7983577060F11D069200563 = D:\dCodeV2\pt-BR\
Property(S): dir9E5A3B74873AE78352FA568733F20660 = D:\dCodeV2\ro\
Property(S): dir0DF44C6AAA034D1DA7FB5C126F730566 = D:\dCodeV2\ru\
Property(S): dir1B17F138D3C501F5E048462A419FBB80 = D:\dCodeV2\sv\
Property(S): dirB57A86750CE66C16FB0770F136C4A567 = D:\dCodeV2\Xcelsius Addon\
Property(S): dir827E768E8FAD19EE7610193A7741CC10 = D:\dCodeV2\zh-Hans\
Property(S): WixUIRMOption = UseRM
Property(S): WIXUI_INSTALLDIR = INSTALLDIR
Property(S): ALLUSERS = 1
Property(S): ARPNOMODIFY = 1
Property(S): WIX_IS_NETFRAMEWORK_461_OR_LATER_INSTALLED = 1
Property(S): dir_InfoSol = C:\Program Files (x86)\InfoSol\
Property(S): ProgramFilesFolder = C:\Program Files (x86)\
Property(S): TARGETDIR = D:\
Property(S): SourceDir = C:\ProgramData\Package Cache\{9CF4366F-4422-49E0-A3A5-C72DC5846540}v2.0.0.1028\
Property(S): PIDKEY = 000000077659311
Property(S): SERCODE = UPDATER
Property(S): ARPPRODUCTICON = ico_dCode.exe
Property(S): Manufacturer = InfoSol Ltd
Property(S): ProductCode = {9CF4366F-4422-49E0-A3A5-C72DC5846540}
Property(S): ProductLanguage = 1033
Property(S): ProductName = dCode
Property(S): ProductVersion = 2.0.0.1028
Property(S): UpgradeCode = {0FDA3E8D-EA53-402A-BEAD-FE440A87769E}
Property(S): DefaultUIFont = WixUI_Font_Normal
Property(S): WixUI_Mode = InstallDir
Property(S): ErrorDialog = ErrorDlg
Property(S): SecureCustomProperties = WIX_IS_NETFRAMEWORK_461_OR_LATER_INSTALLED;WIXNETFX4RELEASEINSTALLED
Property(S): MsiLogFileLocation = D:\Projects\Flash Builder\Installers\dCode\LogFileUpdater_000_MainPackage.txt
Property(S): PackageCode = {B177304C-F0E6-44CE-939A-56BC13DA3337}
Property(S): ProductState = 5
Property(S): ProductToBeRegistered = 1
Property(S): PackagecodeChanging = 1
Property(S): ARPSYSTEMCOMPONENT = 1
Property(S): MSIFASTINSTALL = 7
Property(S): REINSTALL = ALL
Property(S): REINSTALLMODE = vomus
Property(S): REBOOT = ReallySuppress
Property(S): CURRENTDIRECTORY = D:\Projects\Flash Builder\Installers\dCode
Property(S): CLIENTUILEVEL = 3
Property(S): MSICLIENTUSESEXTERNALUI = 1
Property(S): CLIENTPROCESSID = 18340
Property(S): MsiSystemRebootPending = 1
Property(S): PRODUCTLANGUAGE = 1033
Property(S): VersionDatabase = 301
Property(S): VersionMsi = 5.00
Property(S): VersionNT = 603
Property(S): VersionNT64 = 603
Property(S): WindowsBuild = 9600
Property(S): ServicePackLevel = 0
Property(S): ServicePackLevelMinor = 0
Property(S): MsiNTProductType = 1
Property(S): MsiNTSuitePersonal = 1
Property(S): WindowsFolder = C:\WINDOWS\
Property(S): WindowsVolume = C:\
Property(S): System64Folder = C:\WINDOWS\system32\
Property(S): SystemFolder = C:\WINDOWS\SysWOW64\
Property(S): RemoteAdminTS = 1
Property(S): TempFolder = C:\Users\games\AppData\Local\Temp\
Property(S): CommonFilesFolder = C:\Program Files (x86)\Common Files\
Property(S): ProgramFiles64Folder = C:\Program Files\
Property(S): CommonFiles64Folder = C:\Program Files\Common Files\
Property(S): AppDataFolder = C:\Users\games\AppData\Roaming\
Property(S): FavoritesFolder = C:\Users\games\Favorites\
Property(S): NetHoodFolder = C:\Users\games\AppData\Roaming\Microsoft\Windows\Network Shortcuts\
Property(S): PersonalFolder = C:\Users\games\Documents\
Property(S): PrintHoodFolder = C:\Users\games\AppData\Roaming\Microsoft\Windows\Printer Shortcuts\
Property(S): RecentFolder = C:\Users\games\AppData\Roaming\Microsoft\Windows\Recent\
Property(S): SendToFolder = C:\Users\games\AppData\Roaming\Microsoft\Windows\SendTo\
Property(S): TemplateFolder = C:\ProgramData\Microsoft\Windows\Templates\
Property(S): CommonAppDataFolder = C:\ProgramData\
Property(S): LocalAppDataFolder = C:\Users\games\AppData\Local\
Property(S): MyPicturesFolder = C:\Users\games\Pictures\
Property(S): AdminToolsFolder = C:\ProgramData\Microsoft\Windows\Start Menu\Programs\Administrative Tools\
Property(S): StartupFolder = C:\ProgramData\Microsoft\Windows\Start Menu\Programs\Startup\
Property(S): ProgramMenuFolder = C:\ProgramData\Microsoft\Windows\Start Menu\Programs\
Property(S): StartMenuFolder = C:\ProgramData\Microsoft\Windows\Start Menu\
Property(S): DesktopFolder = C:\Users\Public\Desktop\
Property(S): FontsFolder = C:\WINDOWS\Fonts\
Property(S): GPTSupport = 1
Property(S): OLEAdvtSupport = 1
Property(S): ShellAdvtSupport = 1
Property(S): MsiAMD64 = 6
Property(S): Msix64 = 6
Property(S): Intel = 6
Property(S): PhysicalMemory = 16263
Property(S): VirtualMemory = 12352
Property(S): AdminUser = 1
Property(S): MsiTrueAdminUser = 1
Property(S): LogonUser = games
Property(S): UserSID = S-1-5-21-416758010-3103505850-2345745-1001
Property(S): UserLanguageID = 2057
Property(S): ComputerName = UKLAP01
Property(S): SystemLanguageID = 2057
Property(S): ScreenX = 1024
Property(S): ScreenY = 768
Property(S): CaptionHeight = 19
Property(S): BorderTop = 1
Property(S): BorderSide = 1
Property(S): TextHeight = 16
Property(S): TextInternalLeading = 3
Property(S): ColorBits = 32
Property(S): TTCSupport = 1
Property(S): Time = 16:17:38
Property(S): Date = 28/11/2017
Property(S): MsiNetAssemblySupport = 4.7.2556.0
Property(S): MsiWin32AssemblySupport = 6.3.16299.15
Property(S): RedirectedDllSupport = 2
Property(S): MsiRunningElevated = 1
Property(S): Privileged = 1
Property(S): USERNAME = games
Property(S): Installed = 00:00:00
Property(S): DATABASE = C:\WINDOWS\Installer\67c9e1f.msi
Property(S): OriginalDatabase = C:\ProgramData\Package Cache\{9CF4366F-4422-49E0-A3A5-C72DC5846540}v2.0.0.1028\dCodeSetup.msi
Property(S): UILevel = 2
Property(S): MsiUISourceResOnly = 1
Property(S): QFEUpgrade = 1
Property(S): Preselected = 1
Property(S): ACTION = INSTALL
Property(S): ROOTDRIVE = D:\
Property(S): CostingComplete = 1
Property(S): OutOfDiskSpace = 0
Property(S): OutOfNoRbDiskSpace = 0
Property(S): PrimaryVolumeSpaceAvailable = 0
Property(S): PrimaryVolumeSpaceRequired = 0
Property(S): PrimaryVolumeSpaceRemaining = 0
Property(S): INSTALLLEVEL = 1
Property(S): SOURCEDIR = C:\ProgramData\Package Cache\{9CF4366F-4422-49E0-A3A5-C72DC5846540}v2.0.0.1028\
Property(S): SourcedirProduct = {9CF4366F-4422-49E0-A3A5-C72DC5846540}
MSI (s) (B0:A4) [16:17:38:304]: Note: 1: 1728 
MSI (s) (B0:A4) [16:17:38:304]: Product: dCode -- Configuration completed successfully.

MSI (s) (B0:A4) [16:17:38:304]: Windows Installer reconfigured the product. Product Name: dCode. Product Version: 2.0.0.1028. Product Language: 1033. Manufacturer: InfoSol Ltd. Reconfiguration success or error status: 0.

MSI (s) (B0:A4) [16:17:38:320]: Deferring clean up of packages/files, if any exist
MSI (s) (B0:A4) [16:17:38:320]: MainEngineThread is returning 0
MSI (s) (B0:CC) [16:17:38:320]: RESTART MANAGER: Session closed.
MSI (s) (B0:CC) [16:17:38:320]: No System Restore sequence number for this installation.
=== Logging stopped: 28/11/2017  16:17:38 ===
MSI (s) (B0:CC) [16:17:38:320]: User policy value 'DisableRollback' is 0
MSI (s) (B0:CC) [16:17:38:320]: Machine policy value 'DisableRollback' is 0
MSI (s) (B0:CC) [16:17:38:320]: Incrementing counter to disable shutdown. Counter after increment: 0
MSI (s) (B0:CC) [16:17:38:320]: Note: 1: 1402 2: HKEY_LOCAL_MACHINE\Software\Microsoft\Windows\CurrentVersion\Installer\Rollback\Scripts 3: 2 
MSI (s) (B0:CC) [16:17:38:320]: Note: 1: 2265 2:  3: -2147287035 
MSI (s) (B0:CC) [16:17:38:320]: Note: 1: 1402 2: HKEY_LOCAL_MACHINE\Software\Microsoft\Windows\CurrentVersion\Installer\Rollback\Scripts 3: 2 
MSI (s) (B0:CC) [16:17:38:320]: Decrementing counter to disable shutdown. If counter >= 0, shutdown will be denied.  Counter after decrement: -1
MSI (c) (A4:EC) [16:17:38:320]: Decrementing counter to disable shutdown. If counter >= 0, shutdown will be denied.  Counter after decrement: -1
MSI (c) (A4:EC) [16:17:38:320]: MainEngineThread is returning 0
=== Verbose logging stopped: 28/11/2017  16:17:38 ===

