[5768:3BA0][2017-11-01T10:06:30]i001: Burn v3.11.0.1701, Windows v10.0 (Build 15063: Service Pack 0), path: C:\Users\games\AppData\Local\Temp\{1736B6A7-AFB5-46D8-A9D8-45DB91522833}\.cr\dCodeBootstrap.exe
[5768:3BA0][2017-11-01T10:06:30]i000: Initializing string variable 'InstallFolder' to value '[ProgramFilesFolder]InfoSol\dCodeV2'
[5768:3BA0][2017-11-01T10:06:30]i000: Initializing hidden variable 'ProductIdKey'
[5768:3BA0][2017-11-01T10:06:30]i000: Initializing hidden variable 'SerialCode'
[5768:3BA0][2017-11-01T10:06:30]i009: Command Line: '-burn.clean.room=D:\Projects\Installers\dCode\dCodeBootstrap.exe -burn.filehandle.attached=560 -burn.filehandle.self=556 -l LogFile.txt'
[5768:3BA0][2017-11-01T10:06:30]i000: Setting string variable 'WixBundleOriginalSource' to value 'D:\Projects\Installers\dCode\dCodeBootstrap.exe'
[5768:3BA0][2017-11-01T10:06:30]i000: Setting string variable 'WixBundleOriginalSourceFolder' to value 'D:\Projects\Installers\dCode\'
[5768:3BA0][2017-11-01T10:06:30]i000: Setting string variable 'WixBundleLog' to value 'D:\Projects\Installers\dCode\LogFile.txt'
[5768:3BA0][2017-11-01T10:06:30]i000: Setting string variable 'WixBundleName' to value 'dCode'
[5768:3BA0][2017-11-01T10:06:30]i000: Setting string variable 'WixBundleManufacturer' to value 'InfoSol Ltd'
[5768:1FE4][2017-11-01T10:06:30]i000: Setting numeric variable 'WixStdBALanguageId' to value 1033
[5768:1FE4][2017-11-01T10:06:30]i000: Setting version variable 'WixBundleFileVersion' to value '2.0.0.1026'
[5768:3BA0][2017-11-01T10:06:30]i100: Detect begin, 1 packages
[5768:3BA0][2017-11-01T10:06:30]i101: Detected package: MainPackage, state: Absent, cached: None
[5768:3BA0][2017-11-01T10:06:30]i199: Detect complete, result: 0x0
[5768:1FE4][2017-11-01T10:06:34]i000: Setting hidden variable 'SerialCode'
[5768:1FE4][2017-11-01T10:06:34]i000: Setting numeric variable 'EulaAcceptCheckbox' to value 0
[5768:3BA0][2017-11-01T10:06:34]i200: Plan begin, 1 packages, action: Install
[5768:3BA0][2017-11-01T10:06:34]i000: Setting string variable 'WixBundleRollbackLog_MainPackage' to value 'D:\Projects\Installers\dCode\LogFile_000_MainPackage_rollback.txt'
[5768:3BA0][2017-11-01T10:06:34]i000: Setting string variable 'WixBundleLog_MainPackage' to value 'D:\Projects\Installers\dCode\LogFile_000_MainPackage.txt'
[5768:3BA0][2017-11-01T10:06:34]i201: Planned package: MainPackage, state: Absent, default requested: Present, ba requested: Present, execute: Install, rollback: Uninstall, cache: Yes, uncache: No, dependency: Register
[5768:3BA0][2017-11-01T10:06:34]i299: Plan complete, result: 0x0
[5768:3BA0][2017-11-01T10:06:34]i300: Apply begin
[5768:3BA0][2017-11-01T10:06:34]i010: Launching elevated engine process.
[5768:3BA0][2017-11-01T10:06:36]i011: Launched elevated engine process.
[5768:3BA0][2017-11-01T10:06:36]i012: Connected to elevated engine.
[2598:3E58][2017-11-01T10:06:36]i358: Pausing automatic updates.
[2598:3E58][2017-11-01T10:06:36]i359: Paused automatic updates.
[2598:3E58][2017-11-01T10:06:36]i360: Creating a system restore point.
[2598:3E58][2017-11-01T10:06:36]w363: Could not create system restore point, error: 0x80070422. Continuing...
[2598:3E58][2017-11-01T10:06:36]i370: Session begin, registration key: SOFTWARE\Microsoft\Windows\CurrentVersion\Uninstall\{5adb05be-dcd3-49bd-8dd7-33103773109e}, options: 0x7, disable resume: No
[2598:3E58][2017-11-01T10:06:37]i000: Caching bundle from: 'C:\Users\games\AppData\Local\Temp\{035D5CA9-90C4-4999-BFC0-85D7CDDEF523}\.be\dCodeBootstrap.exe' to: 'C:\ProgramData\Package Cache\{5adb05be-dcd3-49bd-8dd7-33103773109e}\dCodeBootstrap.exe'
[2598:3E58][2017-11-01T10:06:37]i320: Registering bundle dependency provider: {5adb05be-dcd3-49bd-8dd7-33103773109e}, version: 2.0.0.1026
[2598:3E58][2017-11-01T10:06:37]i371: Updating session, registration key: SOFTWARE\Microsoft\Windows\CurrentVersion\Uninstall\{5adb05be-dcd3-49bd-8dd7-33103773109e}, resume: Active, restart initiated: No, disable resume: No
[2598:509C][2017-11-01T10:06:37]i305: Verified acquired payload: MainPackage at path: C:\ProgramData\Package Cache\.unverified\MainPackage, moving to: C:\ProgramData\Package Cache\{9CF4366F-4422-49E0-A3A5-C72DC5846540}v2.0.0.1026\dCodeSetup.msi.
[2598:3E58][2017-11-01T10:06:37]i323: Registering package dependency provider: {9CF4366F-4422-49E0-A3A5-C72DC5846540}, version: 2.0.0.1026, package: MainPackage
[2598:3E58][2017-11-01T10:06:37]i301: Applying execute package: MainPackage, action: Install, path: C:\ProgramData\Package Cache\{9CF4366F-4422-49E0-A3A5-C72DC5846540}v2.0.0.1026\dCodeSetup.msi, arguments: ' ALLUSERS="1" ARPSYSTEMCOMPONENT="1" MSIFASTINSTALL="7" INSTALLLOCATION="C:\Program Files (x86)\InfoSol\dCodeV2" PIDKEY="*****" SERCODE="*****"'
[2598:3E58][2017-11-01T10:06:40]e000: Error 0x80070643: Failed to install MSI package.
[2598:3E58][2017-11-01T10:06:40]e000: Error 0x80070643: Failed to execute MSI package.
[5768:3BA0][2017-11-01T10:06:40]e000: Error 0x80070643: Failed to configure per-machine MSI package.
[5768:3BA0][2017-11-01T10:06:40]i319: Applied execute package: MainPackage, result: 0x80070643, restart: None
[5768:3BA0][2017-11-01T10:06:40]e000: Error 0x80070643: Failed to execute MSI package.
[2598:3E58][2017-11-01T10:06:40]i318: Skipped rollback of package: MainPackage, action: Uninstall, already: Absent
[5768:3BA0][2017-11-01T10:06:40]i319: Applied rollback package: MainPackage, result: 0x0, restart: None
[2598:3E58][2017-11-01T10:06:40]i329: Removed package dependency provider: {9CF4366F-4422-49E0-A3A5-C72DC5846540}, package: MainPackage
[2598:3E58][2017-11-01T10:06:40]i351: Removing cached package: MainPackage, from path: C:\ProgramData\Package Cache\{9CF4366F-4422-49E0-A3A5-C72DC5846540}v2.0.0.1026\
[2598:3E58][2017-11-01T10:06:40]i372: Session end, registration key: SOFTWARE\Microsoft\Windows\CurrentVersion\Uninstall\{5adb05be-dcd3-49bd-8dd7-33103773109e}, resume: None, restart: None, disable resume: No
[2598:3E58][2017-11-01T10:06:40]i330: Removed bundle dependency provider: {5adb05be-dcd3-49bd-8dd7-33103773109e}
[2598:3E58][2017-11-01T10:06:40]i352: Removing cached bundle: {5adb05be-dcd3-49bd-8dd7-33103773109e}, from path: C:\ProgramData\Package Cache\{5adb05be-dcd3-49bd-8dd7-33103773109e}\
[2598:3E58][2017-11-01T10:06:40]i371: Updating session, registration key: SOFTWARE\Microsoft\Windows\CurrentVersion\Uninstall\{5adb05be-dcd3-49bd-8dd7-33103773109e}, resume: None, restart initiated: No, disable resume: No
[5768:3BA0][2017-11-01T10:06:41]i399: Apply complete, result: 0x80070643, restart: None, ba requested restart:  No
[5768:3BA0][2017-11-01T10:06:43]i500: Shutting down, exit code: 0x643
[5768:3BA0][2017-11-01T10:06:43]i410: Variable: EulaAcceptCheckbox = 0
[5768:3BA0][2017-11-01T10:06:43]i410: Variable: InstallFolder = C:\Program Files (x86)\InfoSol\dCodeV2
[5768:3BA0][2017-11-01T10:06:43]i410: Variable: ProductIdKey = *****
[5768:3BA0][2017-11-01T10:06:43]i410: Variable: ProgramFilesFolder = C:\Program Files (x86)\
[5768:3BA0][2017-11-01T10:06:43]i410: Variable: SerialCode = *****
[5768:3BA0][2017-11-01T10:06:43]i410: Variable: WixBundleAction = 5
[5768:3BA0][2017-11-01T10:06:43]i410: Variable: WixBundleElevated = 1
[5768:3BA0][2017-11-01T10:06:43]i410: Variable: WixBundleFileVersion = 2.0.0.1026
[5768:3BA0][2017-11-01T10:06:43]i410: Variable: WixBundleInstalled = 0
[5768:3BA0][2017-11-01T10:06:43]i410: Variable: WixBundleLog = D:\Projects\Installers\dCode\LogFile.txt
[5768:3BA0][2017-11-01T10:06:43]i410: Variable: WixBundleLog_MainPackage = D:\Projects\Installers\dCode\LogFile_000_MainPackage.txt
[5768:3BA0][2017-11-01T10:06:43]i410: Variable: WixBundleManufacturer = InfoSol Ltd
[5768:3BA0][2017-11-01T10:06:43]i410: Variable: WixBundleName = dCode
[5768:3BA0][2017-11-01T10:06:43]i410: Variable: WixBundleOriginalSource = D:\Projects\Installers\dCode\dCodeBootstrap.exe
[5768:3BA0][2017-11-01T10:06:43]i410: Variable: WixBundleOriginalSourceFolder = D:\Projects\Installers\dCode\
[5768:3BA0][2017-11-01T10:06:43]i410: Variable: WixBundleProviderKey = {5adb05be-dcd3-49bd-8dd7-33103773109e}
[5768:3BA0][2017-11-01T10:06:43]i410: Variable: WixBundleRollbackLog_MainPackage = D:\Projects\Installers\dCode\LogFile_000_MainPackage_rollback.txt
[5768:3BA0][2017-11-01T10:06:43]i410: Variable: WixBundleSourceProcessFolder = D:\Projects\Installers\dCode\
[5768:3BA0][2017-11-01T10:06:43]i410: Variable: WixBundleSourceProcessPath = D:\Projects\Installers\dCode\dCodeBootstrap.exe
[5768:3BA0][2017-11-01T10:06:43]i410: Variable: WixBundleTag = 
[5768:3BA0][2017-11-01T10:06:43]i410: Variable: WixBundleUILevel = 4
[5768:3BA0][2017-11-01T10:06:43]i410: Variable: WixBundleVersion = 2.0.0.1026
[5768:3BA0][2017-11-01T10:06:43]i410: Variable: WixStdBALanguageId = 1033
[5768:3BA0][2017-11-01T10:06:43]i007: Exit code: 0x643, restarting: No
